\relax 
\@writefile{toc}{\contentsline {chapter}{概要}{1}}
\@writefile{toc}{\contentsline {chapter}{\numberline {第1章}序論}{5}}
\@writefile{lof}{\addvspace {10\p@ }}
\@writefile{lot}{\addvspace {10\p@ }}
\@writefile{toc}{\contentsline {section}{\numberline {1.1}研究背景}{5}}
\@writefile{toc}{\contentsline {chapter}{参考文献}{5}}
