-0.885049	-0.173388	1.685438	0.439419	-0.195092	1.044847	-0.466811	0.778044	1.537461	-0.534734	-0.492085	0.210987	-2.202287	-0.862192	-1.507767	-0.450260	0.950202	-0.161856	0.437505	0.724872	-1.632042	-0.993560	-0.119729	0.377447	-0.248746	-0.024634	1.500447	0.364070	0.845831	-0.596881	-0.939509	-0.544188	0.020068	-0.975675	0.732496	-1.334352	1.685710	-0.693199	2.427219	-0.080981	1.320025	-1.171560	-1.263473	0.437117	0.738148	0.293253	0.182890	0.123639	2.055971	0.238417	1.004394	-0.327513	-0.140153	-2.071583	-0.120148	-0.036422	-0.674374	-0.470228	-0.078303	-2.532830	0.408966	-0.794225	-1.242280	-0.306364	-1.111252	0.294512	-0.267284	2.104094	0.169086	1.003598	1.158540	0.639304	-0.695970	-0.561707	0.313101	0.098023	-1.825250	0.306591	-0.626318	0.043075	0.244585	0.470306	0.478067	0.170294	0.041648	-0.235630	-0.894052	-1.444432	-0.441222	-0.313067	-2.865600	1.115599	0.958382	0.262911	-0.107406	-1.226919	0.107011	1.926433	0.093341	1.975628	-0.615908	
0.417566	-0.627081	-0.975446	0.060964	-0.188259	0.622918	0.535294	-0.176753	0.152814	0.450767	-0.816842	0.008886	-0.631251	0.849394	-0.737455	-0.570844	-1.074709	0.320589	-0.470881	-1.216277	-0.363058	0.647491	-0.933382	0.851806	-0.217271	-2.412392	-1.496695	-0.348905	-1.100634	1.852923	-0.086608	0.436745	0.384866	-1.335922	0.960495	-0.879965	0.667461	-0.227066	0.239527	-0.930579	0.249083	1.495056	1.961429	1.140074	-0.779081	0.907093	0.763335	-0.178037	-0.154882	-0.405660	1.212771	0.358315	0.015306	-0.079718	0.396510	-2.460491	-1.195113	-0.023217	-1.743098	-0.647850	-1.448857	-0.868589	-0.523222	-0.048614	0.841108	1.343246	0.049522	0.309649	0.676636	-0.700792	0.082186	0.159166	-0.790286	0.536428	-1.125750	-0.107992	0.004723	0.977372	1.227303	-0.354634	0.071145	0.152002	1.667481	1.183423	-0.710145	0.679553	-0.196403	0.206428	0.142785	0.402926	-0.250553	-0.047222	-1.310523	-0.163119	0.370329	0.897196	-0.745712	0.921289	-1.209770	0.503482	-0.061910	
0.490651	0.115684	0.697159	2.411281	0.221569	0.058474	1.295691	-0.427737	-0.572373	1.966950	-1.103980	-0.294258	-1.573647	-0.219075	1.308989	0.451157	0.006648	0.724859	-0.117711	-0.791444	-1.659049	-0.804900	-2.196995	-0.782125	-1.052708	-0.805509	0.076263	-0.015573	-1.747580	-0.717332	-1.150025	0.440424	-0.633942	0.551389	0.215434	2.214951	0.046166	1.388757	0.399298	0.502858	-0.197193	-1.027243	-1.135973	0.176322	-1.677575	1.214345	-0.838876	-0.332512	0.105359	0.255211	1.989801	0.753911	-0.460368	-0.794501	-0.860082	-0.038876	-0.243209	-0.116038	-1.221990	0.784186	-0.848591	0.263547	-0.487950	-1.085488	-0.288663	-1.503627	-0.030600	-0.139162	-0.340610	-1.190072	0.259031	0.924478	-0.363500	1.110805	0.547281	0.856882	2.120975	-0.618570	-1.243555	0.395962	0.758967	1.359417	1.264386	1.848178	-0.286837	1.257482	0.325769	1.876695	0.918551	0.564973	0.361937	-0.059120	0.128682	-0.068477	-1.417278	-0.044337	-1.005374	0.439788	0.494824	1.667238	0.129406	
2.949319	-0.972781	1.289430	2.387132	1.616050	1.080195	1.941160	1.647261	1.495674	0.075169	-0.163654	0.181726	-0.586923	-1.866466	0.631497	-1.254774	0.725853	1.036524	-1.634285	0.172273	-0.402617	-1.245676	0.752162	-0.307731	-0.493672	-0.884331	-1.709804	-1.049656	-0.220988	-0.225480	-0.159680	0.436270	-1.429852	1.050961	-1.798394	1.479270	-1.458412	1.134779	-2.370490	0.695579	0.292116	0.746804	-1.116568	-0.866491	-1.369483	-1.235482	-2.137552	-0.057777	0.422110	0.208635	-0.989288	1.837974	0.991316	0.366609	-0.082972	1.309778	-1.051222	-0.390956	0.371425	-1.108332	-1.331433	-0.832019	-2.341043	-0.772731	-0.351610	0.077186	0.375821	-0.521185	0.602385	-0.027999	0.952079	1.405788	0.257196	-0.198277	1.388458	-1.497526	-0.088615	0.621534	1.741485	1.260326	0.642270	1.112104	1.152838	1.254146	0.294586	1.113280	0.065260	0.320623	1.819282	0.320178	1.334971	0.599336	1.147639	-0.634115	-0.509344	0.083858	0.756998	-0.109408	-1.253730	-0.965570	0.610824	
0.799630	-0.576596	0.581708	1.295908	1.866044	0.404226	1.422130	1.005352	1.639838	1.084451	1.741363	-0.118176	0.206614	0.704562	0.684324	-1.413248	-1.019705	0.180247	-0.406945	-0.248471	1.236596	-0.684654	-0.328801	0.849644	0.597264	-0.784575	1.034807	-1.057105	0.082288	-1.686382	-0.108367	0.115228	-1.228251	0.932986	-1.867557	-1.498083	-1.466047	-0.310296	-1.885338	-0.501829	-1.551435	-0.874316	0.944935	-0.671848	1.014190	0.141020	-0.619805	-1.305157	-1.880934	0.216924	0.233513	0.951831	-1.336137	-0.068899	0.281375	-1.302648	-0.977196	-0.416850	0.093559	-0.628665	0.123487	-0.685833	-1.211697	-0.302509	-0.855311	0.904258	-0.037369	0.302222	1.578482	0.080119	-0.014633	0.545860	0.436243	-1.758791	1.704751	1.082830	0.904225	0.305760	0.062316	-1.032737	0.795192	1.260940	1.058398	1.267381	0.554713	0.499085	1.188635	-0.033554	1.216471	-0.522381	1.328713	0.193581	-0.097160	-0.071698	2.261726	-0.806396	-1.079439	0.690879	1.604008	1.389701	0.152846	
-0.598253	1.732371	-0.276737	1.191277	0.986047	-0.467129	2.327481	0.659970	0.038348	-0.400315	0.989761	0.914545	1.967988	-0.209692	-0.406315	1.733507	0.106752	1.883853	0.300057	-2.190713	0.364255	-0.221879	0.029766	0.139695	0.781924	-1.750869	0.784461	0.606849	-0.219231	0.364406	-0.530607	-0.396233	-0.970651	-1.523231	0.687442	-1.593561	0.647030	-0.669502	-1.285649	-0.091360	0.117921	-1.037464	-0.947311	-1.952916	0.695207	-2.317786	-1.874000	1.034568	-0.062787	0.273617	-0.370572	0.026695	-0.126796	-1.747764	-1.397899	-2.225845	0.579755	-0.674842	-0.012984	1.477953	0.839758	-1.122694	0.347910	-0.929936	-0.135367	0.074366	-1.013278	-0.835748	-0.385254	-0.147609	0.697379	-0.120285	1.783973	-0.014809	-0.579106	-0.801084	0.906949	-0.049745	0.261077	1.671227	0.418043	-0.335238	1.273712	0.024092	0.967463	-0.259141	-0.315084	0.289285	0.929493	-0.031600	1.552717	-0.119800	0.458113	-0.178224	-0.974867	0.600242	1.943773	1.118733	-0.544372	0.273102	1.014183	
-0.576146	2.206352	-1.216215	2.366005	1.855663	-0.360521	1.752826	0.976363	1.021601	0.658571	-0.039226	0.357847	0.758698	-0.339465	-1.216045	0.516268	-1.440602	0.551692	0.777903	-0.343333	0.607410	-0.820127	0.525960	-0.354673	0.620250	0.506399	-1.855889	0.441740	-0.594543	1.199400	0.116330	0.180881	2.592716	-0.277905	1.241685	-2.080349	1.102812	-0.588995	-0.378299	-1.380194	1.426662	-0.841461	-0.816092	-1.187079	-0.016757	-1.383540	-2.390500	-2.038925	-1.271146	-0.505638	0.359626	-0.108491	1.722109	0.450229	1.616874	0.267449	-0.126634	-1.265759	-0.718390	-0.833685	-1.238160	-1.148820	-0.695207	-1.596227	-0.446124	0.081700	-0.012096	-0.641784	-0.853839	-0.359738	-0.369044	-0.445659	-1.989765	0.073097	-0.290985	1.227865	0.703103	1.004918	0.209036	0.509864	-1.148212	1.127390	1.412162	-1.054310	0.069249	-0.052792	-0.973641	0.756469	0.590748	0.576775	0.712793	-0.812241	0.903870	2.006463	-0.215995	0.874464	-0.992216	-0.201806	2.377785	0.839183	0.846493	
0.431472	0.964022	-0.280208	0.915702	0.392203	1.202490	1.877540	2.161265	-0.028472	-0.291582	0.381327	0.474469	-0.049136	-0.243269	-1.201994	-1.181802	-0.684436	-0.088458	-1.625032	-0.679733	-0.251278	-0.897120	1.190709	0.810346	-1.260276	1.934635	-0.906661	1.636819	1.043759	0.685800	1.412554	0.338707	-0.810083	0.234903	2.113048	-0.953411	0.861145	-0.813062	0.298870	-0.453491	0.755316	-0.506345	-0.371144	-0.712276	-0.461471	-0.138892	-0.223515	0.321845	0.623128	-0.709146	0.940616	0.370971	-0.472566	-1.494917	-0.144999	0.141608	-0.814239	0.744266	-0.067229	-0.971813	-0.495492	-1.103604	-2.325367	-1.576105	-1.184812	-1.971863	-0.883382	-1.401911	-0.603469	0.301943	-2.020454	1.804910	0.938284	-0.201456	-0.646321	0.579777	-1.824633	0.427416	0.279704	-0.238470	-0.458374	-0.132519	-0.701448	0.561151	0.250347	0.577936	0.700303	0.600278	-0.759722	1.300218	0.882552	0.857767	-0.584307	0.698403	0.373306	1.125478	0.268440	0.180990	1.685833	1.506240	-1.213634	
0.063870	-0.012550	1.485391	-0.500227	-0.234810	1.240593	-1.050609	1.688261	-0.673927	-0.857803	0.109523	0.651619	0.500008	-0.640933	0.083906	-0.613123	-0.456453	-0.227399	0.591987	0.118734	-0.230977	-0.774603	-0.541763	0.443938	0.095616	1.268162	-0.422029	-0.565215	1.099021	-1.141702	0.172142	0.397704	0.663320	0.715108	0.127142	0.442125	0.839107	-0.971878	-0.515705	1.255874	1.607857	1.472935	-0.231834	1.193164	2.456410	-0.315281	-0.604980	0.173634	-0.433436	-0.586580	0.373270	0.216068	-0.272132	0.959056	-2.266787	-1.648836	-1.179081	-0.154668	-1.146657	0.479875	0.191134	-1.948934	-1.747012	-0.775085	-1.322322	-0.573407	-0.920010	-0.636836	-1.181386	0.600448	-0.268064	0.148436	0.332180	0.470914	-1.210936	-0.194813	-0.326519	-0.775736	-0.834684	-0.486007	-0.207083	0.279662	0.046201	2.174237	-0.549996	-1.412643	-1.296002	0.371300	2.448655	1.720069	-0.536180	1.582685	0.381994	2.117592	-0.221892	-1.618384	0.920837	-0.687842	0.366895	1.339460	0.292935	
-0.878674	-1.678167	-0.401404	-1.538750	1.782332	0.100862	-1.283861	1.735676	-0.907639	0.071576	0.553375	0.173424	1.195005	-0.429926	-1.672885	1.057871	1.501095	-0.772398	1.702237	0.306014	-0.225474	1.530137	-0.935740	0.146548	-0.013769	-0.788253	-0.530675	-2.462296	-0.194585	-0.637152	-0.668718	-0.676341	0.059176	1.617588	-0.435789	2.422344	0.061410	1.323357	0.316667	0.939283	1.288673	2.972972	0.293338	0.634093	-0.007544	-0.466484	-0.374762	-0.780224	-0.438213	-1.089479	-1.039401	0.653006	-0.078693	0.503942	-1.135039	0.798132	1.377869	-1.462144	-1.190592	-1.168007	-2.273641	-1.762265	0.801410	-0.024535	-0.400714	0.737043	-0.750635	1.059273	-0.595553	-0.582504	0.665126	-1.744337	0.319525	0.588316	-0.764929	-1.454464	0.532854	0.211186	1.092976	0.745626	-1.170521	-0.093529	-0.513566	-1.349649	1.132203	0.636039	0.066609	-0.645973	-1.206370	1.028167	0.465160	0.984491	0.306387	0.498393	1.196775	-1.307603	0.011307	-0.789731	0.644457	0.340078	-0.943971	
0.334228	0.797252	-0.179203	-1.843867	1.371381	0.620612	1.973954	0.637406	-1.473324	-0.425146	1.044853	1.076842	0.454183	1.712787	0.248537	0.587572	0.390320	-1.238625	-0.387189	0.515934	-1.202282	0.495148	0.067755	-1.376269	-0.116358	0.083682	0.489259	-0.903837	0.110470	0.188888	-0.746292	0.427687	-0.737839	0.143679	-0.180571	2.287151	-0.489424	0.892626	-0.084025	0.546966	0.434376	0.212491	-1.108399	0.750613	-0.774832	0.350343	-0.479747	-1.226148	-0.369319	1.071653	-0.042026	1.118457	0.304391	-0.619130	-0.767996	-1.846271	-1.632794	0.202468	1.713386	0.954681	0.933165	1.150442	-1.592657	-0.866408	-0.400669	-0.825477	-1.604933	-0.399661	-0.221300	1.089740	1.395933	0.687306	1.759148	-0.357193	1.001103	-0.194220	0.751377	-0.703239	-0.005447	-0.824763	-0.183053	0.355677	0.639721	-0.709788	0.009987	-2.795355	-0.295265	0.701742	-0.006915	-0.085035	0.228130	-2.164087	0.755648	-0.163151	-0.374460	-0.273659	-0.505904	-0.565737	1.281164	-0.466527	0.661818	
1.675958	-0.059310	1.630396	2.023939	1.552177	1.404753	0.571852	-1.367487	2.115444	-0.135488	0.765668	2.514283	-1.234503	1.215536	-0.158937	-0.304973	0.442631	0.165626	-1.677442	0.451079	-0.308206	-0.460709	-0.179494	-0.706217	0.287543	-0.361561	-0.613864	-0.205281	0.257958	0.739315	-0.551321	0.789504	0.212929	1.440463	0.143627	-0.035230	-1.910136	-2.222648	-1.026845	-1.287419	0.377292	0.875834	-0.407567	1.699835	-0.476177	-0.137185	-0.451654	0.207622	-0.199941	-0.305999	-0.301865	-0.297394	0.334829	0.715018	0.477865	0.202625	0.492524	-0.545335	-0.341712	-0.889535	-0.439841	-0.939346	-0.402135	1.355204	0.217025	-0.021135	0.683764	-0.501448	0.603211	0.869324	0.784857	-0.189438	2.054364	0.907814	1.313158	-0.429608	0.000728	-0.161298	0.730867	0.175257	1.217534	-1.991782	-2.257756	-0.614059	-0.406558	-1.053412	-0.510269	-1.622803	-0.887869	-0.239444	0.089243	0.243187	0.730968	-1.126858	-0.390250	-0.680604	-1.036871	0.257136	-0.169043	0.470879	-0.562708	
2.094791	0.858315	0.774794	-0.745061	0.514800	3.413259	2.077005	0.423345	2.301289	-1.574731	0.315621	1.299051	1.194429	0.766883	-0.212610	-0.057749	0.695042	-0.812135	0.249594	0.790614	-0.017378	-0.007100	1.105442	-0.849627	-0.539991	-0.878899	-0.327317	-1.157248	-1.043748	-0.312200	-0.913215	-1.463928	0.322463	0.536643	-0.516733	-0.421311	-0.340011	-0.848702	0.855714	0.359599	0.017226	0.050317	0.172374	-0.617991	0.715236	0.056191	-0.751806	-0.336248	-0.296791	1.058992	-0.180792	-0.303551	0.647224	-0.005916	-0.525667	-0.792372	0.744832	-1.434904	0.194913	1.901929	-1.489175	-1.554487	-0.011056	-0.512803	0.210608	0.042295	2.263530	-0.359344	0.117120	1.545537	2.194530	0.545631	-0.156424	1.041158	-0.822091	-1.231645	0.259606	0.003981	0.317234	-1.143656	0.511964	-0.059809	-0.657676	0.013238	-3.275573	-0.509226	-0.460735	-0.757022	0.105585	-1.622460	-1.018021	-0.136846	0.082864	0.353758	2.025797	-0.962911	-0.979226	1.468528	-1.549215	1.183769	-0.300607	
-0.189668	1.049948	2.349497	0.884964	0.293188	0.774942	-0.016674	0.746445	-0.295995	0.737205	2.353707	0.155178	2.056954	0.516987	1.314273	0.559742	0.713082	-0.668917	0.602083	0.278026	-1.150229	0.657707	-0.081709	-1.025348	0.346489	-0.476276	-0.444571	-1.059763	-0.312939	-1.161307	-0.921228	-1.898035	0.023422	-0.662217	-0.134115	0.902544	-0.519010	-0.953082	1.422131	-0.430023	0.738130	-0.625920	1.829581	0.293390	0.658419	-1.078078	0.929531	-0.891384	0.062606	0.308429	0.688136	-0.764232	-0.381132	-0.900175	-0.166491	-1.285894	-1.735593	0.415857	1.430246	-0.258268	0.127475	0.565638	0.623358	-0.851080	1.023492	-1.227535	-1.802359	-0.009671	0.466324	-0.131413	-0.457290	0.325034	0.292806	1.778271	-0.618100	-0.301956	-0.804135	-1.106502	-0.664862	0.952918	-0.871162	-1.026998	-0.421658	1.418483	-1.043101	0.253847	-1.456134	-0.167857	-1.029084	-0.567669	0.571761	-0.250222	0.512625	0.262085	-1.023978	-0.273523	-1.073924	0.655781	-0.747349	-0.309257	0.247114	
1.016781	1.845806	-0.848071	1.361102	0.706032	1.652612	0.043566	0.068300	0.600115	0.421493	-0.500222	0.442882	2.502015	0.089277	-0.159587	-0.240662	0.592653	0.012765	-0.320578	0.418796	0.619728	0.754474	-0.697623	-0.102925	0.071143	-0.905097	0.482182	0.306094	-0.131902	0.019299	0.149464	-0.916300	1.261299	-0.328351	0.310068	-0.396779	-1.715289	-0.450862	-0.853503	-0.976242	1.048764	-0.242768	1.234145	-0.482373	1.095323	-0.260509	0.316816	-0.930066	0.406105	-0.220037	-0.908924	0.226250	0.730245	0.153148	-0.603600	0.388173	-0.441213	0.301808	-0.532021	-1.483626	-0.475518	-0.659416	-0.858609	-0.380117	-0.292689	0.501617	0.031617	-0.524074	-1.924920	-1.316288	-1.084465	-0.305263	-0.792225	0.101082	-0.461612	-0.365346	-0.047110	2.128310	-1.029430	-0.203186	0.413507	0.512945	-0.442037	-0.445653	-0.787286	-1.084696	0.122116	1.923013	-0.612733	-0.006746	-0.902535	-0.753593	0.795851	-0.509263	-1.678828	0.017131	-2.208482	-1.017610	0.354104	-1.709197	0.235296	
0.644516	1.974896	-0.367226	1.862719	-1.124881	1.134895	1.247292	-0.961484	0.489479	0.885193	-1.828935	0.642923	-1.247997	-0.381273	1.178516	-0.085792	0.127017	0.531573	-1.072878	1.939979	0.505445	0.321904	0.732985	0.349918	0.444374	1.339119	1.206229	-0.763222	-1.053825	1.680594	-0.491504	-0.784635	0.208157	0.333206	0.503027	0.069498	1.313891	0.197523	-1.148732	-0.048212	-1.282518	-0.749625	0.829993	-1.422007	-1.452621	-0.110689	-0.614584	-0.303191	-0.311469	0.678746	1.074492	-0.927282	-0.200570	1.321662	-0.210066	0.422801	-1.782813	-0.673761	0.768301	-0.693251	-0.874797	-1.252309	-0.505189	-0.116264	-3.386092	-1.740427	-1.912528	-1.181585	-0.560539	0.906268	0.184157	0.140941	0.067935	1.246236	0.391584	-0.839144	-3.058658	0.844295	0.115775	0.278298	0.284370	-0.071341	0.530821	0.201759	-0.376006	0.374080	0.180672	-0.938451	-1.807556	-0.972730	-0.747979	0.248866	-0.957272	0.502349	0.569530	-0.786276	-1.092076	-1.738564	-0.806166	-0.886010	1.761094	
0.043958	-0.571203	-0.253672	1.016248	-0.627077	0.189459	0.287522	-1.340859	0.429654	-1.172357	-0.274624	0.481726	0.482138	1.352014	0.596829	1.041705	-1.448650	0.904873	0.165125	0.468709	1.383490	1.077334	1.556336	-0.927342	-0.538571	1.040586	-0.607894	1.544249	-1.072493	0.491032	-0.425546	1.139236	0.691633	0.405625	0.311320	-0.092005	0.357750	-1.123874	0.161990	1.962326	-2.165730	0.127245	0.330814	0.293351	-1.320416	0.282500	-0.271892	-0.384571	-2.190428	-1.129586	-1.501904	-1.017744	-0.437986	1.210756	-0.695948	-0.733676	-0.499585	0.178015	0.544955	-1.287849	-1.333969	-0.745160	-1.702901	-0.877815	-1.131921	-0.198245	-1.308314	-0.608899	-0.679085	-1.111062	-0.403389	1.115553	0.667598	0.849161	0.183634	0.552874	0.535148	-0.769926	-0.579281	-0.574743	0.298044	-1.191876	0.308856	-1.122240	-1.280788	-1.678842	0.159435	-0.047999	0.463995	-1.577278	-0.180155	1.734011	-0.395892	-0.748077	0.575221	-1.898189	1.108419	-0.229062	-0.773126	-1.468633	-0.622186	
-0.541398	1.183696	0.110992	-1.388328	1.203444	-0.933739	0.282190	0.422754	-0.485561	0.824433	0.433791	-0.432241	1.939523	0.242976	-1.305508	2.108675	-0.271945	0.558076	0.420114	-1.347189	1.571933	-0.334673	-0.869879	1.008913	1.039344	1.015848	-0.073121	0.833928	-1.071697	-0.441207	0.932851	0.444522	0.316585	0.414238	0.730856	-0.860917	0.631574	0.082175	-1.260298	-0.464987	-0.368291	1.876002	1.041081	0.085553	-1.066724	-0.798940	-1.738560	-0.699958	-0.065459	0.701733	-2.057253	-0.488088	-1.087306	-1.185334	-0.099821	-1.611758	-1.890454	-1.229364	-0.944226	-0.488844	-1.031595	0.391819	-0.168313	-0.328875	1.076812	-0.530661	-0.523238	-0.460742	-0.061924	0.052391	-0.184763	0.661905	-1.057821	-0.754934	0.672212	-1.542237	-0.605305	-0.721670	1.327388	-1.465268	0.734232	0.060340	-0.655222	-1.983204	-0.307393	-0.769139	-0.040978	-0.305897	0.058215	-0.841561	0.511768	0.813304	0.835717	-0.737413	-0.026731	0.374126	-0.100802	-1.878075	-0.186913	-0.064830	-1.014135	
0.530570	1.875590	2.043699	1.154119	2.149534	-0.114534	1.185643	1.229137	-1.828981	0.141896	-0.129719	-0.368955	0.560661	-0.523275	1.016379	-0.084193	-0.858904	-0.042688	-0.113041	-1.780452	1.407821	0.452807	-0.025854	1.060643	-0.519140	0.812731	1.477138	-0.429891	0.779865	-0.588084	-0.027110	-0.212953	0.605206	0.366069	0.033076	0.425021	-0.017099	0.821026	-0.436974	0.729218	-0.718084	-2.133254	-1.054485	-0.418946	-1.678749	0.658672	0.257646	-0.027527	-0.213540	0.805859	0.159182	-1.126882	-0.496945	-0.379944	-0.163556	-1.185136	-2.207350	-0.929271	-0.754819	-0.200607	-0.448398	-1.378821	1.150506	-0.242448	0.199560	-1.014309	0.556299	-1.265648	-0.115652	-0.064826	-0.022552	0.199957	0.141965	-1.118903	0.554639	-1.955210	-0.326331	-2.929440	-1.182610	-1.742012	-0.183408	1.746584	1.089319	-0.548659	0.883379	0.463963	1.173746	0.894027	-1.494986	-1.819364	-0.086649	0.249812	-0.318669	-0.261495	-0.668704	1.204885	0.432776	0.290077	-0.149617	-0.335889	0.702693	
0.940861	3.094754	2.932561	1.729776	0.759959	0.786753	0.702490	0.321412	0.036601	0.296798	-1.446896	0.949131	0.408925	-0.246492	0.653373	-2.126239	0.722368	0.414310	0.845687	0.095287	0.216491	0.714593	-0.539729	-0.109622	-0.834603	-1.220650	0.349813	-1.241101	1.098891	-0.309711	1.639265	1.254718	-0.180317	1.110585	0.706919	0.183340	-1.237619	-0.349616	-1.742658	-0.134957	-0.555891	-0.113925	1.414727	-0.165743	-0.660918	-1.007122	-1.037497	-0.987654	0.468482	-0.621021	0.639862	-1.517184	0.184101	1.334183	0.877215	-0.209825	0.650869	0.248447	-1.398718	0.180460	0.644016	-1.440745	-0.738678	-2.290721	-0.962947	-0.408772	-0.185291	-0.898448	-0.632025	0.054473	-0.283598	-0.846154	-0.534074	-1.872851	-0.033944	0.359444	1.233881	-0.638842	-1.150859	0.518114	-2.284696	0.628315	-0.725057	-1.504989	0.095577	0.066809	0.866605	1.484694	0.657250	0.506109	-0.512763	2.018766	-0.128508	0.134068	-0.206135	0.069856	-0.169542	0.610138	0.400014	-0.593226	1.553445	
-0.265067	0.515720	1.785356	0.785960	0.691881	0.786407	1.045386	0.541349	-0.174030	0.806421	0.818997	1.140287	1.298867	0.729592	0.865443	0.101703	0.659965	0.222627	-0.066898	0.180468	-0.517217	1.165435	-1.071229	-0.328633	0.646383	-0.539157	-0.455679	-0.220817	1.009188	-2.288658	-0.556772	0.923139	-1.275537	1.632566	0.289911	0.160374	-0.535632	0.333028	1.039724	0.874699	0.253664	0.328438	-0.720723	-1.677639	0.821311	-0.254878	-0.097214	-1.275918	1.035392	-1.174397	0.288761	-0.409605	-0.399800	-0.086207	1.803029	0.158921	-1.097476	-0.186903	0.329517	-0.358243	-0.295020	-0.455887	-0.166551	0.052351	-0.267014	-1.317022	-2.625158	-0.395414	-0.981087	-1.149014	0.089819	-0.346814	1.371474	-0.233147	-0.077687	0.497418	-2.404040	0.030911	-0.769327	0.374434	-0.123731	0.419692	-0.442252	-0.568094	-0.733938	0.576251	-0.421508	0.382838	-0.684924	0.451507	0.702936	1.987596	1.217453	1.101988	1.210885	1.525733	-0.011797	-1.450474	-0.986350	-0.297592	-0.282070	
-0.016639	0.695101	2.277105	0.855131	-0.624638	0.528798	1.455965	2.036393	0.321477	-0.418354	2.131708	-0.051484	2.310338	1.557339	-0.475610	0.725625	-0.701036	1.297858	0.540089	-0.491273	0.384203	0.581552	0.900715	1.126822	0.051994	0.041131	1.242299	-0.567424	-0.390387	-0.603484	0.457305	-0.239765	-1.202235	-0.497961	-0.286972	0.507745	0.317421	0.436566	1.715456	-0.872479	1.037600	0.420486	-0.488863	0.666910	0.573933	-1.669016	1.372944	0.186419	1.010282	0.111901	-1.165468	-0.024305	-1.111568	-1.481090	0.522268	-0.117267	-0.453951	-0.534943	-1.256946	-0.958643	-1.267421	0.373925	0.152313	0.249870	-0.581104	-0.061176	-0.470360	0.765378	-0.525117	-0.406026	-0.025967	0.263900	-0.885372	-0.504841	-1.259961	1.214821	0.064763	0.468599	-0.965324	-1.183804	-0.981728	0.666449	0.321974	1.021921	-0.821322	1.381608	0.337312	0.681588	-0.436141	-1.479445	-0.883581	-0.513719	1.021136	0.222427	-0.072226	0.937942	1.802805	0.046295	1.079278	0.539856	-0.095434	
-1.640858	1.363732	1.977884	1.309103	1.866730	1.306424	0.168846	0.296308	-0.010313	0.029119	2.300336	-0.209016	-0.119795	0.022838	0.194100	0.922235	0.356869	1.068342	-0.303912	0.750422	1.423089	0.802093	0.807090	1.128018	-0.243650	0.671078	1.487084	1.204426	0.262403	0.961437	0.686886	1.114651	1.088314	-0.172945	0.662264	-0.627929	-1.483842	-1.412423	0.137907	-0.550165	1.710916	-0.238684	0.203921	1.142218	0.165002	0.312652	0.511217	-0.590200	-0.268025	-0.118067	-0.699213	0.537409	-1.140209	0.400451	-0.706963	-1.231749	0.319181	-1.169073	-1.617690	-0.208287	0.143812	-0.697057	-0.325111	0.792621	-0.896420	-0.102343	-0.614602	-0.629009	0.682699	-0.653981	-0.821614	0.817474	-0.396996	1.297420	-0.856382	1.973965	0.005332	-1.408295	0.416789	0.798933	0.160765	-0.898517	-0.780849	-0.129801	-0.711898	0.324188	-1.599752	-0.335671	0.266402	0.468793	0.694257	-0.885786	0.742689	-1.005540	0.115458	-0.192963	0.926729	0.330039	-1.618084	0.659806	0.779113	
0.667521	1.388051	1.112986	1.061979	-0.345278	1.441674	0.520392	0.186148	0.638030	-0.513547	0.104653	1.177598	0.194812	0.736882	0.466988	-0.561186	1.789494	0.551363	-0.260938	1.169890	0.241382	0.794866	0.784192	0.282564	1.197655	2.478727	-0.234130	1.566872	1.044023	0.106092	0.660090	0.765589	1.257733	0.290244	1.679181	0.952140	1.127108	0.177367	0.417716	-1.028013	0.383559	-0.346620	-0.591178	-0.900672	-0.894869	-0.074518	-2.170098	1.208603	0.688362	0.488627	-0.469725	-0.069892	-2.526730	0.217160	0.764954	1.364112	-0.197779	-0.086070	-1.054175	-0.993481	-0.417751	0.770344	-0.870575	0.480787	-0.040733	-1.966527	-1.550223	-0.977065	0.540959	-0.502296	-0.776313	2.354542	0.120495	1.001130	-0.148130	0.751000	0.853207	-1.141376	-0.696099	-2.132403	-0.456570	-0.046207	-0.134805	-1.862420	-0.078220	0.007366	0.862937	-0.710857	-0.745062	-1.294254	0.607778	0.681028	1.276043	-0.327293	-0.068913	-0.186900	-0.143008	-0.489596	-1.844298	0.247084	-0.458520	
0.256642	-1.412896	0.617919	2.617248	-0.344913	0.912451	0.132032	0.126580	0.286469	1.419369	0.382758	1.456905	-0.698689	1.388168	1.894547	-0.262384	0.949346	-0.009695	1.000648	1.264070	-0.350486	2.259743	1.116298	-0.281844	-0.237679	-0.768620	0.109219	1.063917	-1.496800	0.638812	1.065327	0.708505	0.985818	1.187111	1.871692	-0.397548	0.051406	0.570710	2.376815	1.288824	-0.187407	1.505537	-1.416664	0.983247	0.848241	-1.101962	-1.805394	-0.304749	-1.653952	-0.776798	-0.715799	0.753561	0.311886	0.477897	-0.248531	1.730792	-0.574179	-1.062271	0.113700	-0.356874	-0.857534	-0.062710	-0.311172	-1.418237	0.185587	-0.206159	1.230999	0.847382	-0.280297	-0.040687	1.112791	-0.718598	-0.847221	-2.237232	-0.215351	-0.202704	-1.162401	-0.721327	-0.253758	-0.664280	0.028395	-3.146427	-0.015207	-1.291863	0.602496	-0.194591	1.039005	-1.071680	0.669073	1.001770	-1.639144	-0.735812	-0.019600	0.001520	-1.344854	0.722048	0.195469	0.277384	-0.790455	0.178895	-0.591045	
0.961466	0.377460	1.191666	0.576793	0.361075	0.754219	0.659791	0.637472	-0.326951	0.171751	1.677891	1.394932	1.105667	1.809428	1.073021	0.375666	1.073275	0.232215	0.941626	-0.014253	1.146144	-0.342379	0.276827	0.077562	0.058628	-0.676611	-0.287099	0.026171	-1.044326	0.251679	-0.492214	-0.947255	0.625155	-0.556089	-0.566193	0.712804	-0.422875	1.269988	0.123821	2.347011	0.817278	1.550798	0.448304	2.600031	0.403991	-0.607717	0.913109	0.272906	-0.694318	1.136797	0.274480	-2.640375	-1.068810	-0.755201	-0.567701	0.686152	0.413734	-1.361396	-1.572756	-0.384005	1.241400	0.006829	0.929561	1.296444	1.233030	-1.289214	-0.845899	-0.307940	0.392073	-0.508373	-0.333471	-0.679632	1.233648	-2.118367	-0.833144	0.161424	-0.517813	-0.812227	-1.351711	-1.742298	0.562197	-2.161068	0.198625	-0.897004	-0.632666	-0.522756	-0.042868	-2.206321	-0.570497	-0.192429	-0.630931	1.376535	-0.038207	0.017516	-1.127340	-0.040666	1.113980	-0.477715	-0.878510	-0.466220	-0.606042	
-0.361393	-0.753619	2.285353	1.324244	1.993669	0.377622	-0.707021	0.537430	1.913753	0.651968	1.011555	0.630675	1.110126	1.481365	0.832534	0.334810	0.140977	0.125145	-0.054691	0.561408	0.160731	-0.442343	1.304593	0.053228	0.368885	-0.224172	-1.181443	-0.897033	-0.529612	-0.938658	-1.518547	-0.018335	-0.463708	-0.725875	-0.360998	0.184796	-1.611309	1.520420	0.329898	0.638714	0.092118	0.726536	0.106691	0.961538	1.391760	0.446041	0.619720	0.032107	2.661603	-0.377784	1.474422	-1.095283	-0.569973	-2.148367	-0.236870	-0.441502	0.538556	-0.514641	-0.221375	-0.380349	1.415982	-0.252524	-0.029846	-0.191222	-0.754059	-0.281659	0.810877	-0.755741	-1.160221	-0.896180	0.155813	1.607470	0.430590	-0.196949	0.051363	-0.539499	1.438138	0.072948	-0.775276	-0.540461	-1.679291	-1.398267	-2.122221	-1.124053	-1.097783	-0.549179	-0.061546	0.472428	-0.320918	-0.583088	-1.966645	-0.980372	-1.696441	0.489585	0.344432	-0.566617	0.915627	-0.305407	-0.898020	-1.513589	-0.087592	
0.971070	0.091244	-0.083041	0.608449	-0.055097	-0.304792	1.694206	0.633540	1.771302	0.641491	0.300658	0.310466	-0.129167	0.781971	0.755505	0.755846	-0.642437	-0.053708	0.847195	0.774916	-0.349089	0.354726	0.798823	-1.142822	-0.253468	-1.030076	-1.663623	-0.430207	-0.323441	0.200604	1.001030	0.450274	-0.081376	-0.177681	-0.225095	-1.148580	-1.384136	0.010832	-0.747289	0.664696	-0.364517	-0.436836	0.696724	-0.744096	0.899172	-0.648216	-1.393236	0.437623	0.527108	-2.088745	1.091889	-0.179492	0.766695	0.061506	1.229015	1.836193	1.257521	-1.194089	-1.490599	-1.233497	-1.104217	0.122732	0.054287	0.222447	0.037015	-0.030796	0.075174	0.895214	0.739808	1.014479	0.294958	-0.519643	-1.245615	0.472739	1.095442	-0.052111	0.425204	-0.089612	-0.498346	1.017132	-1.048291	-0.259249	-1.496233	0.835240	-0.328255	0.224981	-1.731916	-1.416251	-1.045924	1.513289	-1.010796	-1.255991	-0.146123	-1.072779	-1.445731	-0.898786	-0.605440	-1.018570	-0.056670	-0.681466	-0.396122	
-0.027920	0.447082	-0.259332	2.420203	-0.091911	-1.856223	-1.104553	-1.207624	-0.622797	1.584600	-0.259955	0.539404	0.545480	1.944680	0.279005	-0.961492	0.146778	-0.302629	0.039436	0.728579	-0.922945	-0.917719	-1.195455	0.367401	0.954400	-0.241832	0.390554	0.897312	0.660545	0.067957	0.169555	-0.626527	0.372028	-0.267624	-0.603212	-1.140908	1.020026	-0.525322	-0.529714	-0.703480	-0.682077	-0.775830	0.835356	-1.645656	-0.406820	-0.838271	-1.058350	-0.199182	-1.673327	0.759013	-0.304644	-2.758574	0.381955	-0.747076	-1.398381	0.103015	0.127004	0.346320	0.649016	1.663630	-0.020657	1.338437	-0.363248	0.050813	1.381674	0.863582	0.950527	0.817799	-1.077184	-0.274091	-0.441197	0.513141	1.416273	0.187717	-1.341934	-0.088932	0.850468	2.122000	-0.647292	0.987815	-0.592353	0.701266	-0.821360	1.945419	-0.804318	0.553730	0.103265	-0.095399	-1.008657	0.031197	-0.663530	-1.542281	-0.528324	0.633894	-0.537159	-0.393597	-0.437764	-1.589661	-1.533759	-2.180045	-2.123964	
-0.633598	0.744014	-0.573416	-0.249891	0.177702	-0.230787	-0.703060	0.558068	0.137174	-0.496184	-1.841593	-0.695432	0.393277	-0.441961	-0.648362	-0.960877	-0.093378	-1.809373	-0.420731	0.322468	-0.300008	0.483570	1.294155	2.020438	0.106940	0.243167	0.290068	-0.858678	-0.078091	0.686908	0.239155	-0.055736	1.071387	-0.993947	-0.767872	-1.497256	-0.024091	-0.342231	0.464831	-1.139759	-0.117147	-0.623434	0.547749	0.406710	-0.550619	-0.677293	-0.390686	0.372559	-2.413877	-1.355491	-2.589109	-0.653887	-0.896518	-1.928487	-1.673483	0.563122	0.243755	1.567630	-1.292079	0.196550	0.513048	1.812771	2.096026	1.441896	-0.219147	-0.088522	-0.480154	0.280390	0.117708	0.934316	0.977584	-1.192834	0.122532	1.145412	1.276561	1.076376	-0.362455	1.441861	0.535953	1.265232	0.453924	-0.454711	-0.864691	0.483599	1.168091	0.110674	0.191383	-0.187018	0.825110	-0.326983	1.702291	-1.490109	-1.647798	-0.250252	-0.390150	-1.353733	-1.301580	0.143996	-0.875241	-2.428784	-0.799269	
-0.395288	0.896743	0.482989	0.346575	1.391961	-0.027554	-1.357250	0.445690	-0.552490	0.289758	0.414243	-1.701745	-1.204817	-1.793382	-0.507037	-1.027495	-2.211256	-0.745962	1.337767	-0.170570	0.143702	-0.404791	-0.002012	1.723852	-0.457154	0.894045	-0.399869	-0.998705	0.613184	-1.468593	0.992745	0.284518	-0.365010	-1.215744	-0.822035	-0.315802	0.974465	-0.044839	-0.362689	-1.037262	0.564084	-0.549378	0.469425	-0.092173	-0.604257	0.706567	-0.687655	-0.560941	-0.388650	-1.174108	-1.513702	1.344217	-1.112557	0.380688	0.119809	-0.092075	-1.286978	0.217537	-1.189252	0.015962	-0.164150	-0.612788	-0.166315	-0.055225	-0.265269	2.340696	0.838720	-0.850398	-0.106905	0.337258	1.205355	1.088208	0.135480	0.584114	0.020210	0.552837	1.551621	0.719374	0.895880	-0.223116	-0.112322	0.455692	0.974525	-0.501310	1.368061	-0.833640	0.706891	-1.006584	0.810741	-0.602132	0.199645	-0.773852	-0.489552	0.092948	-0.639125	-0.508579	-0.203167	-0.776500	-0.763432	-2.225869	-0.499067	
1.242422	-0.130894	0.408867	1.418849	1.416856	-0.541016	-0.814271	0.119055	0.111757	-0.703971	-0.779441	-0.524336	2.108663	-0.045137	0.270582	0.347773	-0.598333	-1.528268	-1.663440	-1.139979	-0.993636	-1.100485	-0.707985	1.410340	-0.616521	-1.215081	-1.115947	-0.798134	1.114307	-0.424290	-0.368644	0.108401	-0.962194	1.412966	-1.735924	-1.144355	0.573561	-0.188223	-0.522377	0.723765	-0.683161	0.756316	0.087574	0.040226	-1.357432	0.710803	1.370393	-0.094598	0.738609	0.473242	-0.168315	1.020280	-0.646402	-0.271432	-1.540176	-0.085317	1.552830	-0.246332	-0.352333	-0.516915	0.350022	0.437221	0.640779	-0.555340	-0.265815	-0.715446	-0.669481	-0.115162	1.494050	-0.244238	-0.264010	-0.511530	-0.897198	1.635305	-0.300990	-0.726320	1.924905	-0.941624	0.646830	0.307587	1.475487	-0.297721	-0.290275	-1.985776	1.164108	0.120295	0.565505	0.111233	-0.425249	0.918463	1.094639	-1.034719	-0.941243	-0.477632	-0.576643	0.689798	0.046669	0.956534	0.658295	-0.173085	-1.829864	
0.853465	-0.428392	-0.249392	0.017990	1.214569	-0.134093	-0.423889	0.055079	1.681977	1.528326	0.503042	-0.363929	0.548143	-0.437662	-0.264785	-0.115682	-1.358060	0.041525	0.181829	0.310282	-1.154267	-1.696200	-0.693799	-0.294589	-0.305624	-0.490680	-1.067020	-1.345102	-1.705969	0.697895	-0.183988	1.278097	0.190690	0.118097	-2.666986	-0.330912	-0.126536	-0.981358	-1.546462	0.949823	0.273817	1.071110	0.654820	1.959793	0.740297	0.281158	0.822063	-0.904779	-0.951740	-1.623922	-0.545017	-0.697909	0.859404	0.558140	0.744555	-0.496152	1.970313	0.589737	1.279214	0.242076	1.010544	0.738378	0.045683	-1.540803	1.265006	1.502121	-0.084817	-2.104561	-1.871960	0.276457	0.224716	-1.108857	-1.698966	0.266254	-0.260718	-0.771861	-0.815693	-0.556601	0.780023	-0.128934	-0.037036	-0.634402	0.028435	-0.374331	0.863957	-0.270035	-0.515625	1.293142	0.202588	1.841525	0.576598	0.142838	-0.275139	0.637875	0.672863	-0.096848	-0.670578	1.553932	0.481509	0.597327	-0.701853	
0.447851	-0.155700	1.545394	-0.497675	1.773032	0.170184	-0.591233	0.298192	0.053466	-0.096081	-0.148339	1.304963	-0.310744	-0.155464	0.062827	-0.040004	-2.031139	-0.220199	-0.626127	-0.303581	-0.138577	0.056511	2.066778	1.262238	-0.115775	-0.317331	-0.776857	0.928043	-0.357956	0.410550	-2.252356	-0.053440	-0.513390	-0.022280	-0.845926	-0.245874	0.114255	0.568922	1.381657	-0.272016	-0.778933	0.282085	-1.179681	-0.870564	-1.156034	0.217519	1.477989	-1.154327	-0.473577	-0.677520	-0.005444	0.351427	0.117102	-1.722604	1.117837	-1.099620	1.175606	0.497114	1.335141	0.283489	1.038833	0.829183	0.939931	1.399465	-0.829554	-1.372247	1.306353	0.043248	0.623809	-0.020833	-0.745856	-1.892163	-0.705623	-0.967829	-0.344253	-0.162279	-0.970533	0.881966	-0.252446	-1.695518	-0.034749	0.081608	-0.126092	-0.876563	1.438859	1.879779	-0.919676	0.818996	-0.522269	0.627882	1.181889	0.795375	-0.263621	0.140284	1.519246	1.092530	-0.383153	1.696292	-0.465447	-0.431745	-1.478437	
-0.076848	-0.727745	0.365936	0.992443	1.167166	-0.182723	-1.809927	-0.417134	-0.117069	1.095545	-0.162543	1.445633	-0.192097	-0.063174	-0.885233	0.240096	-0.894245	-0.317241	0.872738	-1.039975	1.230249	-0.449596	0.468430	0.968744	1.718355	1.433333	1.018611	0.251127	0.474542	0.896414	1.151746	1.527744	1.321899	-1.007945	-0.615994	-0.349086	0.861391	-1.265677	-0.103765	-2.140866	-0.766815	-0.796506	-0.799090	-0.621691	-1.229172	0.019851	-0.150102	-0.084433	-0.001743	-0.960146	-1.130330	0.282644	0.116530	-2.239471	-1.193184	-1.601026	-0.791601	0.937025	-0.856580	-0.166343	0.779588	1.006191	0.198706	0.064962	1.195563	2.115758	0.044129	-0.418436	0.479107	0.402737	0.614294	-1.232576	0.674134	0.451084	0.505107	-0.538695	-0.694351	0.765337	-0.224066	1.851500	0.038998	-0.528042	-0.473803	0.542568	0.236304	-0.029394	-0.809525	0.171400	0.866640	0.902597	1.032278	-0.389679	-0.700155	-0.354808	0.545610	0.520949	0.304033	0.470097	1.895346	-0.151847	-0.133691	
-1.239611	-0.860809	-2.355815	-0.467599	-1.029859	0.266318	-0.032704	0.147409	-0.652134	1.216423	0.415724	0.279389	0.219840	0.313519	0.556518	1.499817	0.189740	-0.505327	1.191392	-0.724430	1.089746	0.392523	1.080244	0.757359	0.063317	-0.478167	1.579914	1.887658	2.386881	1.711987	1.632368	1.170086	2.446963	-0.109242	-0.416709	-1.661344	0.187281	-2.181034	-0.935806	0.414071	-0.801860	-0.820071	0.571557	0.189922	-0.569806	0.967647	0.074733	-1.977168	-1.967522	-2.362978	-2.174429	-1.965169	-2.350737	0.115373	-1.470271	-0.046012	-1.163600	-1.144234	-0.683154	-0.717121	-0.976921	0.472300	0.779055	0.453988	-0.374700	1.463915	0.077534	1.105929	1.533286	0.910644	1.624760	-0.153328	-0.165114	0.632628	1.591271	0.845553	-0.612784	1.178006	-0.085631	1.052708	0.209706	0.785501	-1.352955	1.181730	0.443362	0.287048	0.364291	-0.206118	0.640659	0.006375	0.209100	0.421972	-0.678339	-0.322160	2.016830	-0.022322	-0.237856	-1.706121	0.706852	-1.951669	-1.685517	
-1.237048	-0.010109	-1.070729	1.027558	-0.356858	-0.383817	-1.287132	-1.757519	0.630380	-0.148921	0.450672	0.707419	-0.158699	0.626950	1.607592	-0.198437	1.400291	0.245528	0.028029	0.902597	1.076111	0.637353	1.061231	1.380274	2.056165	1.543493	1.757388	0.361101	-0.535243	-0.829089	0.997863	-0.710211	1.082686	-0.930164	-0.006404	0.207949	0.589322	2.186615	0.988660	0.196501	-0.264713	-0.066193	-0.430299	-1.507835	-0.987331	-0.386751	-0.262494	-0.159048	-1.296717	-2.068841	-1.946303	-0.690415	-1.244789	-1.390908	-3.420158	-0.477297	-1.701344	-0.276014	0.266515	0.201239	-1.015923	0.600726	-0.655119	0.849321	-0.234540	0.135998	0.400475	0.937059	-0.011665	0.889805	-1.063932	1.244442	1.615052	1.046175	0.963377	0.136256	-1.078024	1.149996	1.061774	-0.495863	-0.478848	1.071568	-0.854739	0.710842	1.158973	0.992278	-0.570691	-0.042434	1.519948	0.888581	1.846939	0.766089	-0.648119	-1.556677	-0.224897	-1.410626	-0.519031	-0.151837	-0.546429	-0.187923	0.120294	
0.179296	-0.886161	-0.538280	-0.574532	0.540278	1.272518	0.287891	-0.777557	1.235942	-0.647115	0.988047	0.937930	-0.384728	-1.274054	0.399492	-0.709881	-0.876993	0.751209	-0.193913	1.319674	0.904968	3.049106	1.129771	-0.426149	1.592658	0.853537	0.196019	1.010058	-0.352711	0.107215	-0.691774	-0.708042	1.624208	-0.724521	-0.509179	0.829122	-1.349139	0.609667	-0.815312	-0.728333	0.211312	0.956770	0.391227	0.240598	1.015257	-0.311803	-0.803293	0.346479	-0.789316	-0.539662	-0.263386	-1.420186	-0.520196	-0.284174	-0.084699	-0.711808	-1.452698	-0.506822	0.385798	-0.450222	0.035509	1.306715	-0.901880	-0.516391	0.450728	-0.018417	0.078562	-1.851247	-1.122938	1.500589	-0.914182	-0.853223	-0.137115	-0.445334	0.558264	0.593133	0.125156	-0.678084	1.200781	0.847671	0.881356	-0.561124	-0.686858	1.065351	-0.893635	-0.557564	-0.353750	0.069995	1.196311	-0.248582	-0.013262	0.775731	-1.120202	0.764126	1.034961	0.882543	-1.214523	1.746424	0.136494	-0.599940	-2.700504	
0.085347	0.034906	0.684851	-0.257340	1.261002	-0.172995	1.550506	-1.871729	1.199752	1.672152	1.543926	-0.368066	0.191215	0.823449	0.032201	0.549888	0.036823	-2.018726	-1.071757	-0.648410	-0.987259	0.587096	-1.185620	0.459250	1.199575	0.769061	1.275444	1.203041	-0.912734	0.736089	1.330449	1.343140	-0.880771	-0.636780	-1.761465	-1.050404	-1.586004	0.191268	-0.939966	0.112417	-0.503023	-0.588107	1.364666	0.227539	1.255275	2.099331	0.903264	1.466390	-1.432978	0.287369	0.320815	-0.341528	1.766720	-1.389466	0.424040	-0.414804	0.920834	0.363103	1.101174	0.317285	-1.009903	-0.050433	0.765122	-0.676461	-1.418807	-1.804319	0.288060	-0.474574	-0.662845	-1.883933	-1.220912	0.483906	0.307994	-1.363409	-0.042925	-0.584459	-0.263013	-0.591580	1.261771	-1.148483	-0.203682	-0.562713	0.453606	0.029845	-1.586888	-1.198911	-0.358009	-2.586809	-0.035065	-0.546102	-0.031963	2.037030	0.262370	0.065605	0.683708	2.630682	-0.025826	0.133865	0.352443	1.998862	-1.849284	
-0.558821	-1.258980	1.068409	0.131787	1.649167	0.581907	0.684428	-0.429518	-0.850318	0.815245	1.041088	0.981704	0.173546	0.938218	0.358177	-0.046089	-0.226671	-1.260901	-0.804025	0.196072	-0.814820	0.938457	-1.744627	-1.383335	-0.754580	0.455315	0.313139	0.310498	0.012010	1.058938	-1.339778	-0.051926	-1.524560	0.678633	0.465204	0.308851	0.544424	0.796630	-0.231091	-0.933113	1.144600	-0.679047	1.213426	-0.118243	-0.260120	-0.034851	0.337743	2.556396	0.919165	0.940065	0.916040	-0.930607	1.322564	0.018870	1.889144	-0.677890	-1.475103	-1.045362	0.349295	1.756531	1.169161	-1.156343	0.218975	-0.891912	0.397517	0.081478	-1.534964	-0.778250	-0.203468	-0.399810	0.315990	-0.244030	-0.873726	-1.139410	0.661463	-0.117433	-0.630582	-1.691769	-0.781746	-1.406291	-1.871511	-1.767549	-1.600434	-1.516111	-0.200661	-1.242447	1.082575	-0.216264	1.744654	1.066218	-0.807953	-0.120755	-0.258547	-0.116417	-0.182211	0.258745	0.689413	0.180535	0.331835	1.618257	0.800309	
1.322534	0.003130	-0.459084	-0.677894	-0.684736	1.976351	-1.009382	0.817160	0.440816	0.393853	-0.595342	0.478910	-0.958631	-0.547530	-0.190314	-0.191066	-0.334886	-0.245756	-0.396632	0.460053	1.018760	1.227275	0.528326	-1.241389	-0.669815	-0.033094	-2.054718	-0.965973	0.182337	-0.124802	0.109062	1.636048	0.274778	-0.079112	0.436024	-0.476781	-0.169428	0.451902	1.746383	-0.448355	1.805908	0.521559	-0.934667	1.204799	2.466849	0.117234	-0.568697	0.144668	-0.119762	-1.019809	0.261081	0.856630	-1.090265	1.214650	-1.232501	-0.647630	-0.072205	0.911006	0.194829	-1.620350	-0.174469	-0.126366	-0.034724	0.445742	0.302424	0.807442	1.060492	1.277298	-0.419911	-0.440359	-0.461183	-0.307213	0.701304	-0.540796	-1.449765	-0.952542	-1.420552	-1.694224	-0.944216	0.503247	-1.331594	-1.844046	-0.154836	-0.791967	-0.061503	-1.388542	0.209873	0.724386	0.388605	0.311341	0.176777	0.441660	0.891090	-0.338893	1.382298	-0.066141	-0.301751	-0.770954	1.044731	-0.188350	-0.952662	
0.503286	0.397326	-0.433537	1.136332	-2.010337	1.665342	-1.015925	-0.722959	-1.886684	0.539173	-0.012461	0.369851	0.149998	1.088244	-0.818649	-1.138350	-0.019441	-1.125393	-1.383877	-0.309961	0.163413	-0.885521	0.811626	-0.769707	1.648163	2.379500	1.093953	1.453783	1.667394	-0.447198	0.251225	-1.148221	-0.599769	-0.509712	0.251176	-0.021584	0.467017	0.213740	1.361304	-0.528684	-0.398746	1.688062	0.911671	-0.109773	-0.277195	-0.509649	1.578891	0.596700	0.545926	-0.460708	-2.508041	-1.664058	-1.064046	1.295240	-1.392498	-0.590593	-1.859770	-0.558479	1.903639	0.952757	0.525162	-0.983942	-0.014506	1.300248	0.448370	-0.936266	-0.209964	0.550567	-0.668952	-0.129808	0.219499	0.525122	-0.492281	-0.191517	-0.582587	0.829047	-0.731447	0.122580	-1.018411	0.585309	-1.011579	0.615866	2.056587	-0.601771	-1.563395	0.189944	-1.235238	0.651101	-0.694580	0.545690	0.160994	-0.446133	1.388919	-0.142276	1.006663	0.805479	0.739167	-2.067436	-0.632050	-1.011622	-1.211551	
0.594616	-0.383014	-0.805414	-0.243088	-1.240125	-0.174828	1.850371	0.800716	-0.912468	0.253124	1.625461	-1.173280	-0.207457	-0.259958	-1.753484	-0.303019	0.535969	-0.599844	-0.590301	-1.130249	0.847985	0.759477	1.560192	-1.156819	0.138926	-0.127146	0.876280	0.283627	1.457776	1.539457	0.838917	-0.117832	-0.175206	0.704028	0.623548	-0.463084	0.259064	-0.013691	-0.497985	0.899008	-1.002836	-0.688411	-1.644629	0.589721	0.448652	-0.301549	0.107651	-1.268317	-0.907608	-0.045632	0.018442	0.919354	-0.885383	-1.202604	-0.885030	-0.758958	0.413601	0.410705	0.289579	0.142507	0.478979	0.002628	0.515155	-0.153761	-0.231179	0.071337	-0.817528	-0.640635	-0.134397	-2.633975	-0.089575	1.039432	-0.829697	1.943798	0.941392	1.016752	0.777885	0.382171	0.707798	0.348268	-0.505797	-1.046645	-0.333755	1.037823	-0.726895	0.684114	-0.073493	0.576682	0.445080	0.157699	-0.554035	-1.386110	1.623512	-0.051701	-1.537701	-0.456301	-0.329494	-0.777844	0.509102	0.248650	0.632496	
-0.733233	0.683129	-0.241101	-1.556999	2.208350	-0.753279	1.295411	-0.564871	0.525174	-0.221370	1.160008	0.610510	0.276342	0.364182	-0.443397	0.052362	-0.309336	0.139310	0.417007	0.210020	1.501946	-0.935619	-1.394968	-0.986990	-0.529421	-0.492974	-0.046042	-1.177610	1.771867	0.038603	0.219732	1.255384	-1.621772	0.160754	1.341970	-0.027263	0.127169	-0.081641	-1.742328	-1.570332	0.000852	1.259896	-1.210101	-0.126653	-0.504289	-0.748562	-0.846805	0.250752	0.314822	-0.925141	-2.202767	-0.339117	1.323745	0.656125	1.536795	-2.038026	0.110780	1.289287	-0.463586	0.711787	-0.148474	-0.854615	0.498386	0.545504	-0.714618	0.196881	0.225968	0.779778	0.028496	-1.410338	-0.087267	-0.129310	0.202908	0.188566	0.237300	-0.083686	1.008212	-0.888674	-1.304491	0.492811	0.911819	1.130019	0.864813	-0.476822	-1.918403	-1.756314	0.108208	1.484642	-0.748960	0.143358	0.827747	-0.170222	0.053629	0.874084	0.199007	1.252152	0.112563	0.036850	-0.818961	-0.896076	-0.038423	
-0.661448	-1.406040	1.134060	-1.805708	0.189172	-1.172639	1.755830	-0.160578	-0.040185	0.183012	1.091644	0.429024	0.744882	0.788528	1.290263	0.134880	0.192743	0.216925	-3.827357	-1.796933	-0.071900	-1.059261	0.460051	0.351963	-1.174624	0.506847	0.643540	0.584935	1.799322	-0.291639	-1.457170	-1.258195	-2.665434	-0.853053	-1.187326	-0.795225	-2.040601	-0.961851	1.316069	0.442932	-0.732614	-0.741289	-1.594831	0.644126	-0.260298	1.309266	0.555901	-0.591770	-1.391615	0.110027	0.549083	0.705330	-0.281106	-1.379995	-0.160934	-0.861361	0.174960	-0.380996	0.065908	1.461139	0.760109	0.986791	0.236659	2.094559	0.517660	-0.590310	-0.563426	0.686545	-0.044962	-0.857732	0.360363	-0.699607	0.560444	-0.862163	-0.232884	-0.707835	0.455150	-0.944827	0.514981	0.432022	-1.977283	-1.462613	0.157628	-0.991447	-0.381927	0.555318	-0.904350	0.994124	-0.135726	-0.571582	0.397319	0.326212	1.257029	2.740539	-0.545412	1.048427	-0.210996	0.392507	-0.236863	1.185053	0.144793	
2.300004	0.927890	-0.374626	0.372313	-0.136482	0.092674	1.691579	0.291877	-0.802130	0.708146	0.689559	-0.188394	-0.151685	-1.700657	-2.380531	-1.922930	-1.514157	-0.464237	-1.050000	0.948977	1.642487	0.454152	-0.756484	0.377002	-0.897544	0.484768	-0.566703	-0.294636	-0.576521	0.079789	1.052366	-1.141018	-1.750590	-0.664204	-1.520210	-0.459239	-0.419014	-2.885409	-2.216386	-2.046054	0.496136	-0.242552	-0.132051	-0.352037	-0.315924	0.571674	-0.303799	-0.258851	1.425082	-1.555310	-0.939159	-0.369850	0.529898	1.235331	-1.858537	-0.155719	1.166166	0.016050	0.703567	0.360158	0.006245	1.254693	-0.270199	0.728569	-0.469133	0.720907	0.110456	1.031859	-1.114223	-0.928164	-1.033692	-0.255308	0.922101	0.748032	0.926628	-0.722028	0.430828	-0.469287	-2.320902	0.073766	0.433710	0.773305	-0.222507	-0.832498	-1.686162	-0.573639	0.275724	0.001490	0.889738	1.409067	-0.608778	-0.320691	0.520068	0.588454	-1.044949	0.392961	2.600526	1.415099	-1.024429	0.418359	-0.286854	
-0.612062	0.935518	-0.282994	1.405078	1.080539	1.285102	-0.653601	0.486484	-1.401324	-0.469225	-0.953057	-1.372590	-1.351979	-1.477235	-0.643712	0.720007	-0.193194	-0.166193	-1.518095	-0.776158	-0.009529	1.259596	0.073221	0.715664	-1.197557	-0.706412	-0.998720	1.397386	-0.484843	0.610974	0.069419	-1.409796	-0.191200	-0.075211	0.515046	-1.889302	-0.412218	0.414512	-0.506135	-0.433092	-0.295853	-3.131664	-1.442175	-2.206462	0.548245	-1.301952	-0.879370	-2.173234	-0.555842	-0.684117	0.487883	0.480590	-1.232542	0.209410	-0.028082	-0.284787	0.362827	0.829909	0.579161	-0.515609	0.041884	-0.197245	-0.650251	0.096437	-0.831992	-0.537252	-0.779592	-0.068352	1.088479	0.192690	-0.303708	0.924502	-0.189478	-0.039111	0.352980	0.029096	1.193322	1.240189	0.813394	0.351978	0.649482	0.138301	0.187854	0.932698	-0.819002	-1.113506	1.400264	-0.388345	-1.221477	-0.351501	0.523137	-0.467461	0.755482	1.349370	1.281622	-0.450633	0.836895	-0.006042	-1.635655	0.194669	-0.930728	
0.011956	1.199962	-0.813182	-2.078621	-3.341662	-0.766925	-1.509330	0.465926	-1.365779	-0.280296	0.959930	1.273474	0.365700	0.043107	-0.441247	-0.522729	-0.218313	0.106154	-0.156485	-0.570966	0.507098	-0.268110	-1.503070	0.194213	-0.483106	0.015764	1.755141	0.566762	0.387801	1.118958	0.368928	-0.125535	-0.802228	-1.821652	1.117513	1.121229	-1.129232	-1.367007	-0.134453	0.386107	0.152875	-0.883867	0.269116	-2.501001	-1.532192	-1.829513	-0.888016	-1.653137	-1.788927	-0.489767	-0.788844	-0.571802	-1.526593	-1.848333	-0.480046	-0.764148	-1.245977	-1.231051	-1.778961	0.536011	1.276290	-0.630507	0.304630	-0.453400	1.054315	-0.852906	0.375020	0.286611	-0.450659	-0.927232	-1.517357	0.084761	0.665333	2.164766	1.648386	2.150711	1.455922	-0.337280	0.764614	-0.029003	1.259040	1.158243	-0.136433	-0.113818	0.400414	-0.263215	0.765371	0.823729	1.960745	0.372196	1.723452	-0.628528	-0.044938	-0.685257	-0.113272	-0.811958	1.314166	0.157489	-1.180292	-0.073222	1.356835	
-0.593640	-1.164792	-0.861420	0.637235	-0.442837	-0.557678	-0.638135	-0.669480	0.126654	0.094942	0.041358	-0.306634	-0.152586	-1.382710	-0.181747	0.170631	-0.406997	-0.061103	0.113875	0.690277	1.407285	1.072975	1.680599	0.780088	-0.667906	-1.860452	1.370314	1.042181	0.740476	2.485356	0.413449	-0.444440	-0.197233	0.688123	-0.831673	-0.093393	-0.889765	-0.443502	-1.663884	0.978991	-1.733437	-1.584880	-0.140491	-0.178707	1.418173	0.811842	-2.105880	-0.744953	-1.637465	-0.978993	-2.681750	-2.760326	-0.797837	-1.207965	-1.788761	-1.985922	-0.727146	-1.118276	-0.860282	-1.054382	-0.839922	-0.943978	0.617721	-1.486621	1.440189	-1.285284	1.220433	0.814263	-0.351395	1.163231	-0.193032	-0.178999	0.526389	0.115771	-0.485568	0.729438	0.209557	1.937817	1.312284	-0.998284	0.886744	0.556938	1.159032	0.839186	1.591063	1.545905	0.563051	0.178222	1.346897	-0.095646	-0.538159	0.013516	2.176696	1.307029	0.526571	-0.517482	1.184708	-0.221812	-1.045854	-1.109245	-0.011495	
1.337687	1.227766	0.350753	-0.368491	-0.475839	-0.999533	2.025202	0.989980	0.946252	-2.434379	-0.934586	0.646198	0.094201	-1.092368	-0.338491	-1.398769	-0.300279	0.276717	1.256611	0.548392	0.396306	0.862351	0.447779	-0.031595	2.394767	0.215996	1.778749	1.247965	0.387341	0.520939	1.030426	-0.828377	-0.061214	0.570996	-1.346272	1.310392	-0.724177	0.183190	-1.206400	1.066673	0.089341	-1.618480	-0.850867	-1.212361	-2.300125	0.911930	-1.592001	-0.056904	-1.493223	0.347608	1.245940	-0.828588	-1.867092	-1.304694	-1.111536	0.541907	-1.191733	-1.957508	-0.479315	-0.915075	-0.741413	-0.164241	-1.509530	-1.692111	0.209134	-0.844137	-0.648812	0.247172	1.301530	-0.077353	-2.506148	0.072358	0.361496	0.683085	-0.483687	0.286654	-0.688166	0.321550	0.646206	-0.433011	2.396601	1.101256	0.739306	1.328616	-0.489383	-0.965061	0.532498	0.591478	0.204126	0.919178	0.673117	0.630503	-0.235734	1.141294	1.952973	0.639781	1.364223	0.676100	0.143463	0.015939	0.608170	
0.087052	0.652981	0.291619	-0.494215	0.078963	-0.187176	-1.461423	-1.211303	1.726707	0.840279	1.931674	1.280287	-0.301262	0.375733	-0.163092	0.125569	0.080886	-1.474463	-0.227037	-0.315561	-0.314597	1.560929	0.065182	-0.769521	0.660403	-1.694711	1.018620	0.522226	0.108504	1.106420	2.751269	0.561116	-0.625826	-0.548028	1.087310	2.001983	-0.243617	-0.815662	0.025045	-0.383607	-0.720321	-0.500512	-0.089558	-0.173553	-1.155436	1.031677	-0.264269	-0.590486	-0.561457	-0.447484	-0.051800	-0.427253	0.609793	1.231842	-0.769361	0.006758	-0.557646	-0.484954	-1.173886	-0.984882	-0.049150	-0.388578	0.569466	0.551348	-1.024438	-0.687074	-1.461806	-2.132098	-1.992880	-1.360815	-0.842331	-0.252246	-0.470656	-1.051239	-0.133483	-0.389157	0.839885	2.012497	0.441021	-1.778692	-1.578384	0.526509	-1.178837	0.149957	0.619713	-0.692415	-0.728691	1.159826	0.589467	1.314615	-1.412834	2.842501	0.495898	1.286837	1.068328	0.324214	1.509541	2.265093	1.072098	1.085600	1.361377	
-0.575523	0.727459	0.124078	0.074444	0.255025	0.538328	0.998969	1.873178	1.126948	-1.465723	-1.023360	0.634721	-0.267270	0.971706	0.683962	0.225945	0.050790	-0.258142	1.796762	0.374760	-1.190683	-0.819001	-1.041132	-1.497424	0.145576	-0.613544	-0.232704	-0.311682	0.127401	0.807928	0.513885	-0.078782	0.910116	0.276736	0.895762	-0.307360	1.264371	-1.272798	0.100877	1.017693	0.199000	1.383151	0.599838	0.232737	1.920421	0.278552	1.028659	-0.237816	0.396794	2.024394	0.374447	-1.193780	-1.195847	-1.259857	-0.386610	0.590347	-0.568249	0.424678	-0.395836	-0.101339	0.127031	-1.002799	-0.064069	0.034964	-2.112478	0.744441	0.271900	0.356251	0.078134	-0.344620	-1.811239	-3.897127	0.115678	-0.998402	-1.081733	-1.358138	-1.883262	-1.569383	-1.135787	-0.880781	-0.880089	1.841468	-0.249823	-1.055807	-0.535786	0.709804	-0.976293	0.612028	0.950163	0.488147	-0.191895	1.974205	0.733294	2.012867	1.735214	2.260195	1.398584	0.830235	2.207810	0.274209	0.093446	
0.566993	1.346951	1.206954	1.106227	-0.072260	-0.083868	-1.184881	-0.560069	0.450664	1.533422	-0.242311	1.133129	-0.725203	-1.232576	-0.717856	0.047010	-1.121734	-0.447762	-0.127975	0.562131	0.225488	1.833176	0.500098	-0.100131	-0.472900	0.791896	-0.119873	-0.286848	-0.953476	0.842297	-0.099333	-0.458869	-1.800528	-2.291725	0.290560	0.934342	1.826281	-0.903422	1.301402	1.152368	1.531578	2.016634	1.487963	0.229412	1.065865	0.017652	2.685600	0.007501	0.400800	0.883504	1.625651	0.481105	0.962930	0.209403	0.128712	-0.303692	-2.385595	-1.676727	-0.080932	-0.448314	-0.780237	-0.021322	-0.455087	0.150616	0.668858	0.893216	-2.244998	-0.227564	-0.307819	0.478640	0.776250	-1.592271	-0.339922	-2.570496	-2.454337	-1.381405	-0.805788	-0.185662	-0.894341	-1.032965	-1.849366	-0.436929	-0.146930	0.680650	-0.352077	-0.056398	0.339048	1.673149	0.549641	0.107882	1.175676	1.218908	0.418654	-0.502537	0.899839	1.333244	-0.305766	0.729753	1.474543	0.010230	0.986254	
-0.608720	0.718448	0.284111	-0.128180	-0.398331	0.143696	0.227065	0.180579	-0.136454	-0.514752	-1.680022	-0.032583	1.336656	-0.305987	-0.784806	-0.645737	-2.184724	-0.188904	0.450104	1.999696	-0.145754	0.709809	1.268109	1.002814	0.615114	0.579879	-1.001627	1.473396	-0.605069	-0.589913	-0.215654	0.574692	0.083535	0.236063	1.474875	-0.243975	-1.644966	-0.140432	0.883375	-0.115061	-0.140568	0.405420	0.622280	1.699924	1.780575	0.451113	0.851851	0.265456	1.996959	1.149714	0.472298	0.746674	0.032986	0.939524	0.772439	0.857924	0.661499	0.051050	0.853245	-0.409334	-2.018378	-0.243071	-0.955326	-0.548761	-2.080859	-1.221792	-0.440423	-0.457084	-0.417911	-0.228586	-1.171561	-0.757378	-0.548261	0.541325	0.897716	-0.052064	0.815878	0.177168	-0.586824	-0.653194	0.639677	-0.670553	-0.730297	-0.615964	-0.201772	0.038633	0.240306	-0.291035	-0.076719	-1.289405	-0.320054	-0.007396	2.251736	-0.239415	-0.460550	-0.112169	-1.311229	0.568829	0.323244	-2.042521	0.271261	
-0.966414	-1.093273	-0.629806	-1.039964	-0.092685	-0.288450	-1.194905	0.142689	0.590660	-1.094275	0.103684	-0.465396	-0.152707	-0.666623	-1.038853	0.274917	1.420197	0.874848	0.927651	0.959100	-0.792692	0.772822	0.931036	-0.708983	-0.985476	1.397129	-1.407903	-0.156682	2.868332	1.213105	1.895779	0.205762	-0.445983	-0.050249	-1.517693	2.270638	1.349527	0.118928	-0.655213	-1.079561	0.650714	0.403519	-1.436653	0.062094	-0.207413	0.684228	0.932229	-0.404029	1.144627	1.720296	1.181335	0.659656	0.039616	0.551802	1.805084	-0.047984	0.491682	0.565680	0.769869	-0.024935	0.764963	-1.094682	-1.421796	-0.008497	-0.705581	0.164806	-0.249814	-2.912187	0.343462	1.755662	0.265656	0.650454	-1.717754	0.249614	-1.039189	-0.906105	1.093580	1.546450	0.807111	-0.279327	0.016449	0.622153	1.533740	-2.325143	-0.613865	-0.509357	-1.543036	-0.884990	-0.926832	-1.755337	-0.494233	-0.124481	-0.154456	-1.441490	0.895402	1.205090	-0.358515	-1.087435	-0.171183	-1.527932	-0.948249	
0.072762	-1.836934	0.923429	-1.403550	-2.130509	-1.896290	-1.092088	-0.736201	0.192717	-1.017810	0.291641	-0.818607	2.446394	0.716158	0.036196	-0.772568	-0.965393	-1.114083	0.673664	0.623559	0.119695	-0.296954	1.412018	1.234996	-0.789420	1.402883	0.587110	-1.357848	1.504650	-0.362921	-0.380778	0.233654	0.474527	1.707005	-0.048645	0.944173	-0.917854	0.257724	2.224580	1.440659	-0.637827	0.510909	-0.590528	0.104624	-0.037481	-0.566520	-0.384667	-0.099273	-0.077736	1.183147	0.590232	0.972243	0.346312	-1.226775	1.770476	-0.335848	-0.860036	-0.630084	0.349405	-0.929315	-0.527822	1.335453	2.648157	0.938560	1.933946	0.538442	1.248366	0.982022	1.656363	-0.001403	-0.494735	0.105623	-1.527962	0.028210	-0.443576	-0.042140	-0.314607	-2.140417	-1.236630	-0.709212	-0.732532	-1.906085	0.497854	-1.629312	-0.057713	-0.174262	1.201166	0.253378	-0.560675	-1.809787	-0.240952	-0.435091	-0.397541	-1.124031	-0.639029	-1.574149	-1.150257	0.452615	1.115506	-0.488841	1.044431	
0.102026	-1.265239	-0.714832	-0.997599	-0.205449	-0.950483	-0.381648	0.019611	-0.430349	0.117353	-1.943394	-1.411315	0.390241	-1.928583	-0.615921	-0.165333	-0.360647	0.990652	1.035953	-0.882994	-0.241437	-1.351931	1.007478	1.129739	-0.886757	-0.495735	0.010741	-0.678570	2.099991	0.589303	-0.056748	0.324263	-0.453160	-0.149242	1.461232	1.467787	0.655069	0.310449	-0.621599	-0.586161	0.701180	0.324162	0.147509	1.689838	0.504018	-0.193472	0.144894	0.451355	0.355690	0.176156	-0.778833	-0.776794	-0.671086	-0.525881	-0.482762	0.797762	0.209637	0.605427	1.792672	0.289584	-0.162014	0.593939	0.694711	-0.371603	2.090557	1.625351	1.420251	1.015276	0.561627	1.070761	2.452428	0.027643	0.080856	-0.219395	-1.886031	-2.130375	-1.846220	-0.631722	-1.548041	-1.711736	-1.129176	-1.743477	-0.296835	-0.605727	0.045178	-0.667936	-0.086869	-0.326700	-0.810023	-0.235089	-0.044036	-0.210309	0.431046	-0.517511	-0.263383	0.795854	-1.074631	-0.850831	-0.129702	-0.875629	-0.064232	
0.826868	0.184063	0.012374	0.510045	-1.298520	-1.232766	-0.587460	1.266495	-1.046933	-0.648516	-1.500276	-0.951749	-0.593734	-0.423849	-1.001257	-1.529131	-0.828852	-0.410641	0.302625	-0.289260	0.959729	-0.808880	-0.528133	-1.038505	0.014478	-0.013829	-0.223522	0.083419	0.309923	0.033418	-0.192173	1.452413	1.978214	-0.123289	-0.067307	-0.402582	0.153881	2.277082	-0.471413	-0.131518	0.560995	-0.717794	-1.227532	0.126270	-0.333724	0.922637	0.453547	-0.928224	-0.692955	1.063272	0.728904	2.592738	-0.009114	1.790773	0.114115	0.552828	0.475664	0.353814	-0.600673	0.528853	-0.666043	0.261049	0.629754	-0.078389	-0.132332	-1.766248	0.928800	0.545667	1.623813	0.603106	0.363253	-0.223939	-0.789919	-0.098811	0.448620	-0.846041	-0.818882	-0.349601	-0.076110	-0.017741	-0.265621	0.525039	-0.729176	-0.950759	-1.310029	0.455080	-1.336930	-0.812062	-1.814711	-0.757374	-0.383657	0.537957	0.895995	-0.257846	-0.546291	0.300959	-1.836540	-0.385320	-1.149258	-0.420042	-0.043239	
-0.884354	-1.094178	-1.960711	0.538637	-0.848659	-0.211613	-1.107596	-0.210625	-1.096848	0.499850	-0.349133	0.486634	-0.176877	-0.291934	-0.634822	-1.237055	0.061890	-1.252702	-0.553655	-0.562987	-1.685458	0.025142	1.822544	0.550555	0.602463	0.369733	-0.052477	-1.006955	0.313036	0.273434	-1.262839	-0.683488	0.399618	-0.053261	0.797687	0.782655	1.086324	0.188211	-0.402420	0.351472	-1.236986	-1.204934	1.128948	0.462500	-0.406940	-1.744241	-1.112171	1.789981	1.974088	-0.158463	0.954419	2.437782	0.089566	0.729405	-0.170173	0.903893	-0.211997	1.573676	-1.752380	-0.160163	-0.631195	-0.556896	0.073112	-0.414202	0.208224	0.122380	0.161948	-1.047067	-0.890963	-0.154136	-0.771591	2.279505	-0.487293	-0.794589	-0.271129	0.104598	0.886517	0.971010	0.090430	0.913079	-0.345638	-0.501779	-0.958022	1.998867	-1.077045	1.342910	-0.345442	0.110719	-0.361373	-0.601989	-0.553534	0.195563	-2.440015	-1.308868	-0.978598	-1.156628	-0.379357	0.436989	-0.811007	-0.255928	0.258152	
-0.718955	-0.570627	-1.736861	-0.981115	-2.056140	-0.230118	-0.292832	-0.274812	-0.031175	-0.300237	-1.028966	-1.032262	-0.363687	0.459330	0.503782	0.121145	0.198756	1.503460	-0.592316	0.957275	0.620321	-0.351495	-0.689850	0.905555	-0.731941	-0.065509	0.408262	0.715843	0.608790	-0.815949	0.153521	0.995698	0.232882	-1.466685	-1.071751	-1.689180	0.411354	1.239068	-0.202809	-0.384903	0.894055	-0.175765	0.084362	-0.627543	2.144938	1.214482	0.188178	-0.643470	-0.610822	-0.759510	0.418382	-1.417912	-0.017957	-0.850654	-0.582194	0.555456	-1.398714	-0.142666	0.032184	1.114787	1.018525	0.750975	0.603641	-0.796618	-0.733545	-0.339132	-0.241358	0.348670	-0.188999	1.894039	1.253403	0.041097	-1.232913	0.475527	-0.397276	-0.542953	-0.519566	-1.391372	-0.209298	1.038169	1.177408	0.789111	-0.659831	0.388295	0.444676	1.406169	1.188234	-0.540065	-1.283496	0.660575	-0.537797	0.849593	-1.120958	0.629216	0.328283	-0.767039	0.890253	-1.904261	-1.892370	1.581669	-2.373224	
-0.318441	0.731800	-0.463439	0.351408	-0.320621	-1.833791	0.000679	-0.633184	-1.252556	-0.388731	0.036818	-0.470404	0.409362	0.358355	0.108969	0.259092	0.031465	2.754003	-0.553117	-0.567349	0.159966	1.353776	-0.743681	1.982725	1.368549	-0.711717	0.023089	-0.191341	0.292607	0.045336	-0.755517	-0.188321	0.948539	0.293444	0.979131	-1.541783	-0.313542	1.463288	0.812452	-0.855090	0.447968	-1.119405	1.065269	0.743575	-1.144148	-2.403170	-1.840447	0.111631	0.400370	-1.043205	0.612412	-2.092695	0.364825	-1.211363	-0.283133	0.283316	1.292177	-1.124295	-0.754058	0.518146	0.187251	-0.328396	-0.066051	0.487340	1.555024	1.386680	0.296428	2.287966	-1.538387	-0.477367	1.714080	0.074477	0.032164	-0.121113	-0.518213	0.244847	0.111785	-0.256012	0.299806	-0.258184	-0.244901	0.059170	-0.356834	-0.455184	1.004586	-1.149222	1.171976	-0.345340	-0.897921	1.412580	0.611508	0.319215	-0.296517	0.390759	-0.395138	-0.568899	1.740602	-0.265866	-1.050994	1.174192	-0.509933	
-0.886825	0.694055	-1.184523	-0.736830	-0.807637	-0.758703	2.881690	0.743304	1.139990	0.012566	0.936281	-0.906913	-0.205968	1.203430	-1.068378	-0.615045	-1.316920	0.483366	1.170334	1.203777	-1.071504	0.723816	0.915517	0.837177	0.500838	-0.233451	0.343816	1.900289	-1.167043	0.436720	-0.840563	0.166984	1.080467	0.602934	-0.194437	-0.537989	1.091782	0.992861	0.160499	1.016107	-1.418387	-2.727714	-1.950832	-0.791373	-0.430039	-0.275235	-1.733736	0.719028	0.387264	-2.677397	1.508767	0.935823	0.500523	0.019663	1.818402	-1.205101	0.650674	-0.999875	0.676465	-0.069677	1.577404	-0.708202	-1.050724	-0.555172	-1.679661	1.568575	-0.469313	0.535000	0.742926	0.593782	2.207906	0.925280	1.178030	-2.273123	0.741099	1.497075	-0.661209	0.115931	-0.349535	0.880887	0.694964	-2.006416	-0.629020	-0.233483	1.197652	-1.247172	0.501187	-1.004872	-0.612141	-0.864744	-0.417789	-0.839321	-0.689354	0.364564	0.271706	-0.573599	0.356697	-0.027120	0.875132	0.932186	1.887034	
2.017488	0.248667	-0.117764	-0.682438	0.247740	-0.249786	0.747701	-1.359755	1.906041	-0.692650	0.417463	1.134291	-0.889729	0.978625	-0.692833	-1.002351	3.463781	0.449975	0.102378	-0.153748	0.162035	-1.553358	-0.357521	1.099133	0.942302	-0.380172	-0.236253	1.684053	-1.022203	-0.129769	0.008756	0.188685	-0.187384	-0.310560	-1.057338	-1.744907	-0.287041	0.285079	-1.685077	-0.149483	-1.755695	1.593481	1.151990	-0.060202	0.422491	0.204827	-0.745891	0.813371	0.931027	1.782485	0.363398	0.913671	0.062175	-0.705808	0.797479	0.879120	1.613431	-0.910836	-1.042843	0.099118	0.382245	-0.710532	-1.387249	0.789424	-1.598537	0.693060	0.472185	-0.542240	0.092112	-0.027470	0.772203	0.993906	1.602717	-0.495117	0.588191	-0.217561	-0.226256	-0.274115	-0.611583	-0.383957	0.466197	-0.499047	0.542633	0.066141	-0.105631	-0.802416	-0.501601	-2.849630	-0.051873	-1.250776	1.008969	-0.759517	-0.572959	0.451255	-0.149467	-0.836989	0.958435	-0.828980	0.775309	0.561009	-0.114824	
2.046736	0.603446	2.806135	-0.323488	-0.155066	-0.257797	0.192345	0.611439	-1.089298	-0.587552	-1.215093	-0.276974	-0.236112	1.530075	2.752548	-1.810126	1.194538	1.329009	1.913585	-1.311801	1.537798	-0.919753	-0.857898	0.615357	0.733436	-0.685142	-1.008473	-0.612550	-0.270666	-1.674832	-1.703806	-2.648244	-1.910442	0.094038	-1.408989	-1.732134	0.236209	1.919376	1.271303	1.344453	-0.476160	-0.288727	-0.967219	1.858972	1.620242	0.786344	2.024472	2.699239	0.173413	0.433565	-0.088901	1.316113	1.569235	2.008643	-0.890750	0.597634	-0.819707	-0.522117	-1.045800	0.051067	0.892818	0.751459	-0.561268	-0.447369	0.867263	-0.178173	0.382663	-0.243690	-0.202814	-0.722625	0.940074	-0.685929	-0.920155	-1.443889	-0.690194	0.534612	0.465058	-1.196926	0.189890	-0.593833	-1.046491	-1.438250	-0.953679	0.410270	0.086949	0.824691	0.469030	0.045589	0.960994	0.283284	0.031840	-2.200538	-0.071439	1.669768	-1.242515	-1.229031	0.915697	-1.504944	-0.717562	2.900885	1.875880	
1.084324	-0.538090	-0.879012	-2.096621	0.588055	2.014261	-0.270479	2.147283	-0.356883	1.668052	0.722070	-0.860393	-0.503974	-1.564631	0.351656	-0.229531	0.881199	-0.028932	2.472964	-0.968905	0.432228	-0.357799	-0.067367	-0.614346	-0.541882	-1.379220	-0.463737	-0.981907	-1.948356	-3.427373	0.403322	-0.917281	-0.525753	0.543301	-1.508749	0.462879	0.920454	-0.052549	0.391002	0.025779	1.124059	2.333767	0.785492	1.069928	-0.473736	-0.586506	0.963347	1.340301	0.939305	1.160979	0.940234	1.677396	-0.949048	1.555180	0.148205	1.842717	0.949512	1.521362	-0.335941	1.483676	0.650401	0.196184	0.197973	-0.663130	0.452071	-2.048704	-0.004687	-1.383584	-0.147722	-1.064201	-0.160149	0.514462	-1.221197	-0.651676	-1.433665	-0.885094	-2.381144	-2.895754	-0.078690	0.805119	-0.282475	0.457093	-0.110810	0.959305	1.871671	0.547959	-0.777988	0.362364	-0.376522	0.862568	0.744764	-0.498520	-0.629159	-0.083052	-0.246830	0.435219	0.141478	0.450039	2.284809	0.170287	0.010479	
0.669606	0.893126	-0.228609	-1.090382	-0.834166	1.096768	-1.056490	1.677396	-0.229780	0.317961	-0.826073	0.213761	0.846413	1.555317	-0.191131	-0.281958	0.631387	-0.405915	-1.476755	0.271387	-2.750946	-1.012912	-2.234303	0.092663	1.160598	-1.113390	0.347236	0.752312	0.062510	0.422079	0.020810	-0.646773	0.535643	1.525161	-1.222000	-1.306033	-0.010461	-0.132474	2.308871	-0.883904	-0.654585	0.038140	0.703673	-0.014189	0.708026	1.235635	1.125587	0.106188	0.736925	-1.134030	-0.507425	1.150709	1.632518	2.968574	1.485445	0.531378	0.874107	1.245351	-0.075870	1.249742	0.990538	-0.101737	-0.093154	-0.281497	0.451919	-0.128779	0.264927	-2.120897	-0.563101	-1.298850	-1.705106	-0.323610	-2.067454	-1.346098	-2.465755	0.699612	-1.494331	1.089202	-0.235104	0.626531	0.156826	0.039163	1.080782	-0.467738	-0.504955	1.106598	-0.802209	0.544691	-1.126385	0.987936	-0.579836	0.698900	2.005061	0.748770	0.270506	0.940484	-2.202512	0.772359	0.840554	-0.625918	0.876462	
0.395749	-0.813305	-1.701678	-0.756780	-1.786710	0.745856	-0.426994	-0.446867	-0.480619	-0.761149	0.708267	-0.019004	-2.366835	0.003982	-0.026826	0.535439	-1.236584	2.481626	-1.339684	0.429786	-1.802940	0.394304	-0.933216	-0.560845	0.925028	1.601355	0.405250	1.298007	-0.131668	-0.242176	-0.423540	0.667767	0.476775	-0.665971	-0.074562	-0.235435	0.435679	-0.351798	1.013958	-0.364505	0.026188	0.041161	0.838180	-0.463610	-0.858932	-0.687067	1.146056	1.542564	1.650985	2.002431	1.073673	0.615420	1.047351	-1.191859	-0.616020	-0.081612	0.816662	0.240400	-0.528815	-0.297524	0.872376	1.015007	-0.648417	1.379923	0.419441	-1.025042	0.735996	-0.529179	-0.581813	0.673198	-0.776248	-0.688513	-1.898559	-0.352090	-0.556723	0.875758	-1.409302	-0.311895	-1.575627	0.632424	0.536669	-1.676057	-0.553898	0.515151	0.075497	0.924285	-0.330749	-0.000413	0.270390	2.103394	0.416979	0.176444	0.248109	-0.160593	-2.162076	1.413336	0.637820	1.152752	0.433068	1.131970	0.442123	
-0.392955	-0.317508	-0.929186	-2.032262	-0.877730	-0.522814	-1.333922	-1.319094	-0.351191	-0.995131	-1.437539	-1.285367	-0.755609	-0.790459	-0.849097	0.720135	-1.195165	1.497892	0.794720	2.010331	0.844196	0.275071	0.648845	1.196756	-0.365521	-0.124360	-0.900734	0.867617	-0.000212	-0.939781	-0.212549	-0.682082	0.380807	0.134556	0.560735	-0.278116	0.083085	-0.024980	0.980238	0.031598	1.089577	1.369396	-0.317204	0.948519	1.471961	0.634314	2.027170	-0.856654	0.273055	1.091609	-0.769717	-1.130173	1.323478	-0.575634	0.906696	-1.137067	-0.580875	-1.422972	0.475545	0.123181	0.878281	0.688640	-1.515776	-0.292968	0.925899	0.513421	-0.109148	0.752827	-0.407070	0.798306	1.427328	1.664641	0.069336	-0.631074	-1.365711	-0.611908	-0.814685	-1.444204	-1.502677	-1.206672	-1.184178	0.481926	-0.285384	-0.415966	0.953063	2.043657	0.369984	1.093553	-0.763465	-0.817484	-0.131255	0.144184	1.011658	1.013226	-0.079014	0.533202	-0.636379	1.393194	0.970680	0.423240	0.375515	
-0.158992	-1.404067	-0.537644	-2.234271	-0.404849	-2.010182	-1.051202	-0.371710	-0.763469	-1.531869	-1.242513	-2.618521	1.081841	-0.795083	-0.210652	1.014838	0.802692	0.046323	1.458197	-1.130963	0.412547	-1.737315	-0.469485	0.142358	0.247256	1.491949	-0.335357	0.350726	0.897834	0.209398	-0.153903	-2.801515	0.807430	0.468187	-1.153163	0.695378	-0.535368	1.371743	2.796356	1.003273	-0.274124	1.990931	1.851460	0.736177	-0.476018	0.846805	0.729689	-0.025703	1.128988	-0.324762	-0.406159	-1.416718	0.208215	-0.656105	0.380982	-0.323169	1.201227	0.551429	-0.009414	-1.022988	-0.755702	1.222767	1.200967	-0.753127	0.722066	1.593423	-0.807129	0.781306	1.108569	0.285674	-1.669601	-1.805063	-1.029242	-0.074940	1.164221	-1.850053	1.160367	-1.342311	1.749847	0.046908	-0.184140	0.271348	-0.967203	-0.406693	-0.134823	-0.451576	0.077895	-0.764218	1.293639	0.271934	1.571261	0.450471	0.226356	-1.230302	1.637065	-0.176693	-2.284295	0.959159	0.499885	-2.010080	1.220878	
-1.361882	-0.973316	-1.500907	-2.487744	-1.815296	-0.738428	0.331590	-0.288551	0.014816	0.257712	-0.120003	-1.865396	-1.438405	-1.113532	-0.186580	-1.681916	-0.013406	-1.906354	1.376968	-0.536579	0.133350	-0.867951	0.519950	-1.334736	-0.365441	-0.288185	0.689993	0.279671	0.003484	-0.995262	-0.048486	0.904473	0.610332	-0.565381	0.131819	1.358148	-0.217841	0.264305	1.237815	1.812701	1.198323	1.090267	0.150960	-0.401534	-0.592200	2.364844	0.526432	-0.150135	1.486807	0.384684	0.187420	-0.012010	1.428342	1.007838	-0.628985	0.454963	-0.209437	0.133627	0.155511	0.428139	1.007546	0.526666	-0.158733	0.767002	0.083697	0.740122	0.212935	-0.260216	-1.794321	-0.248089	0.084366	0.047187	0.397795	-2.153710	0.542301	-2.538630	1.741339	-0.922682	0.695250	-0.104261	0.202717	0.432965	-0.555142	0.313310	1.749315	-0.166173	1.747296	-1.682329	0.360879	-0.610123	-1.203895	-0.239728	1.715914	-1.531446	-0.279860	-1.052419	-0.985902	-0.227204	0.456042	-0.793080	0.248873	
0.038725	0.360932	-1.477618	0.168964	-1.000727	-1.177007	0.038758	-0.914176	0.225195	-2.075570	-2.204141	-0.433931	-1.658450	-1.520291	-0.590760	-0.226650	0.035616	-1.073375	1.049514	-0.428762	-0.470611	-1.430925	-0.106171	-0.864650	0.032924	-0.723868	0.115575	-0.591031	-0.055130	0.827510	-1.960195	0.374914	-0.439704	0.469538	0.983249	0.401427	-0.019809	2.373408	-0.716906	-0.262639	0.391447	0.377866	1.931282	1.747402	-0.667971	1.708915	0.926360	1.861295	0.019752	2.357399	-0.132884	0.011571	1.366372	0.487437	-0.117196	1.918015	0.304223	1.550214	1.096678	-1.294158	-1.842585	0.474487	0.323023	0.046654	-0.126662	0.117332	0.177104	1.502690	1.321230	0.627679	-0.371546	-1.856186	2.625701	-0.430417	0.016524	-1.731437	-1.468655	-0.950529	-0.311580	-0.779865	-0.894219	0.034564	1.106749	-0.166079	1.101356	-0.878425	0.587360	-0.309104	0.246873	0.220132	0.506120	-1.027071	-1.314339	-1.419711	0.738847	-0.668489	-0.719985	-0.135964	-0.531250	-0.074622	0.460770	
0.798137	-0.365603	-1.384683	0.028401	-1.149346	-1.544024	-0.302014	-1.966475	0.540670	0.369010	-2.002301	-1.238844	-1.061763	-1.697189	-0.667772	2.899847	0.006471	-0.300905	-0.747020	-0.452319	-0.546922	-1.367385	-1.423335	-1.187329	-0.658398	0.988829	1.012699	-1.083738	-1.187702	0.308551	-1.521264	1.588404	-0.847797	-0.358591	-0.227738	-0.032093	0.690056	-0.043046	0.816877	1.271969	1.429126	1.169173	1.027284	-0.172097	0.070259	1.070879	1.321503	2.723487	0.208124	2.286060	0.443747	0.565524	1.201666	0.340020	-0.470726	-0.441198	-0.467032	0.645505	0.046428	-0.157059	0.602456	2.079759	0.724122	-0.598879	1.471685	2.584137	-0.550082	0.412265	0.728904	-0.211980	0.228963	-0.390831	0.182685	-0.451172	-0.692257	0.725813	-1.516520	1.217278	-1.629168	0.349711	-0.756607	-0.379552	-1.663962	-2.178521	-0.102580	0.135193	-0.755976	-0.844924	0.644053	-0.853718	0.442371	2.691829	-1.120740	-0.264388	0.230497	-1.273283	-0.519759	-0.350908	0.512756	-0.677719	-0.068667	
-1.519197	-0.618888	-0.250455	-1.701545	-1.162203	-0.662572	1.621685	-0.473729	0.371042	0.849886	-0.910885	0.135641	-0.844867	-0.146422	-0.972186	0.539132	-1.972258	-0.291085	-0.475058	1.061861	-0.856404	0.415029	-0.082726	-0.803931	-2.443892	0.451955	-0.751928	0.292369	0.372493	0.047558	-1.309312	0.889313	-0.183395	-0.956111	1.621870	0.728452	1.437217	-0.484089	0.245191	-0.162907	-0.117869	1.390828	1.400931	-0.321226	1.898259	0.652578	0.346525	0.094665	0.997152	1.264504	-0.560648	-0.022537	0.577474	1.191772	0.375461	-0.464975	0.684412	0.370088	0.794357	0.178430	0.642707	-0.052782	2.138275	1.750186	0.054741	1.075696	0.906192	1.035670	1.364790	-0.837503	0.584777	-1.050865	-0.961356	1.367512	-2.350189	-0.005975	-1.856286	1.338234	-2.011490	-0.060948	-0.953422	0.396799	0.447091	0.303055	-0.214554	0.521673	-1.335803	-0.584365	-0.038106	-0.150878	-2.689637	0.030753	-1.826692	0.540298	0.279053	0.191936	0.368775	-0.529663	-0.741330	0.760176	0.307205	
0.576322	0.038594	-0.106658	0.539634	1.660527	-0.967498	-0.633457	1.129768	-0.690049	0.924698	-1.520994	-0.062509	-1.959821	-1.553407	0.206714	1.819110	1.166197	-0.485349	-0.283277	0.546439	-1.015554	0.315124	-0.658396	-0.742603	-0.764329	2.231970	0.504793	-1.364948	0.349693	0.378760	0.366509	-0.199744	1.576842	-1.129094	0.999318	-1.582040	0.377415	0.848058	-0.262189	1.229970	1.099693	-0.527753	1.863339	-0.795013	-1.502548	-0.579994	1.299429	0.564646	0.289286	-0.728693	0.983087	0.531935	-0.185833	1.317877	0.719596	0.358358	1.267741	0.857382	1.870981	0.035977	-0.536195	-0.592949	-0.628263	-0.642776	0.461257	1.115536	2.612438	0.504319	1.874430	0.846028	0.054754	0.186326	-0.992172	0.456820	-2.948293	-0.813731	-1.782388	-0.258112	-0.004097	0.643520	0.371951	1.412308	-1.314983	0.502247	-1.162237	0.890527	0.987012	0.582170	-1.605773	0.204689	-0.580988	1.090784	-2.377282	-1.579584	-1.929570	-1.346156	-0.673919	-0.208591	-0.287340	0.889833	-1.131255	
0.733001	-1.147311	-0.964743	-0.008264	-1.024325	-0.060938	-0.137099	0.762351	-1.177820	1.437100	-0.972408	0.061738	-0.017781	-0.736650	0.362399	-0.011427	1.133411	-0.797749	0.485378	1.024608	0.697718	1.663700	0.291114	-0.130480	0.009121	0.361373	1.385198	-0.799376	-0.222768	-0.397756	0.522232	0.683309	-0.966026	-2.084882	1.488889	0.308661	0.143699	0.093610	-1.356888	0.564364	0.126848	-0.425927	-0.277683	-0.682747	0.304171	0.333077	0.111549	-0.249511	1.657831	0.730188	1.469803	0.184487	0.049839	0.651960	0.308232	-0.649684	-0.200129	-0.336040	-0.170380	-0.762953	0.376235	1.447300	1.028688	-0.118895	0.765800	-0.228152	0.530507	-1.134682	0.008940	0.221635	0.052289	0.984172	-0.295383	-0.387789	0.762990	0.805257	0.869506	0.711775	-0.416468	-2.116835	-0.045995	-0.014433	-0.256914	0.469386	-0.856921	-0.188865	-1.363968	1.868586	0.539011	-0.369390	0.244483	-0.836173	-0.513015	0.474119	-0.194996	-0.173708	-1.366983	-1.245780	-1.762610	0.999508	0.377771	
-1.061954	-2.614960	-0.043446	-0.862840	-2.677929	-0.318660	-0.763424	0.199528	1.045328	1.779620	1.415647	-0.329378	-1.074705	-1.732961	1.744843	1.148970	1.426407	0.131756	0.867656	0.351372	1.229899	-0.127150	1.360058	0.256112	0.727116	0.393473	1.041651	-1.567534	0.150523	-0.780485	-1.015114	-0.525903	-0.383762	-0.600490	-0.852095	0.578851	-1.199450	-0.487588	-0.229666	-0.519026	0.298216	0.184310	-0.601202	-0.602742	0.155605	0.207847	0.783233	2.141628	0.324103	0.213222	0.345753	-0.680659	-0.422964	-1.385777	0.386567	0.261915	-0.341044	1.890879	0.444488	1.683419	-1.785492	-2.071075	-0.149709	0.381340	-0.345302	-0.186605	0.387828	1.908802	-0.243221	-0.799300	-0.329044	-0.178590	0.212853	0.517244	1.333855	-1.449262	0.655271	-0.186112	0.873914	-0.705635	2.416287	-1.044130	0.870164	-0.848349	0.317807	0.724765	-1.289663	-0.145391	1.223366	-2.783081	1.148703	-0.530896	0.025640	-0.441743	0.077173	0.322742	1.913617	0.458113	0.285898	0.006684	-1.526929	
0.241514	-1.111482	-0.578255	0.765437	1.383904	-0.631056	-1.625369	0.158311	0.213829	-0.930487	1.208349	-0.975296	0.635470	-0.362627	1.098650	0.869486	1.524602	1.502165	-0.660839	0.803285	2.413320	-0.026304	-0.025112	-2.218852	0.084498	0.868029	1.097258	-1.383387	-0.012251	0.263929	-0.004639	-0.979041	-3.178647	-0.207829	-2.340157	0.286986	-0.167907	-2.021445	0.453616	-0.224584	0.725764	0.895825	-0.021227	0.706690	-1.540349	-0.819429	-1.042841	-0.630431	-0.195373	-0.505557	0.715578	0.682462	0.269272	0.873120	1.169664	0.533420	0.356853	0.219178	-0.720428	0.703110	-0.422977	-0.725463	-0.873926	-0.721925	-2.002839	0.740872	0.529385	0.037594	0.945095	1.795829	0.540667	-1.013079	-0.877200	-1.030052	-0.251742	-1.384086	1.167493	-0.909981	0.899969	-1.172299	2.291238	-0.450153	2.624799	1.069370	-0.299630	-0.784792	1.076177	0.045393	0.999952	-0.643751	1.255253	-1.601141	-0.542895	-0.427732	0.697360	-1.541137	-1.139076	-2.484963	-0.394243	2.689586	1.666851	
0.212989	1.318001	-0.272499	-0.815751	0.083284	-0.707913	0.602189	0.589879	1.837947	-0.769577	2.535921	-1.872017	-1.592897	-0.831489	-0.602699	1.016644	1.282515	0.986948	0.059386	0.284690	0.505760	0.219689	0.927394	-0.114955	0.697918	-0.118301	-0.584999	0.305053	-2.908455	-2.313275	-0.199799	-0.263056	-1.433670	1.037452	-0.917220	-0.465721	-0.432841	-0.744629	-1.254731	-1.028089	0.524230	-1.003173	-2.676394	-0.116393	-1.415013	0.501992	-0.059182	-0.141886	1.078529	-0.549031	0.294059	1.240271	-1.020533	1.532957	1.301587	-1.471035	0.466525	1.039159	0.832983	-0.866429	-2.019380	-1.234385	0.914374	1.897370	-1.107188	-0.364993	0.133108	-0.029145	-0.451239	-0.340467	-1.736366	0.346335	0.751334	0.662919	1.374277	-0.693841	-0.544193	-1.055239	0.557497	-0.229211	-0.181054	-0.600615	-0.588282	1.155948	1.833002	-1.086908	1.602211	1.005648	0.183111	0.829910	-0.133790	-1.616171	1.330780	-0.957305	-1.411074	-1.207094	0.498661	0.633202	0.929805	-0.129369	0.109724	
-0.110827	-1.165916	0.995216	0.749019	1.273913	1.600013	-0.181421	-1.395805	0.964852	-0.066519	1.876804	0.223431	-1.735904	0.814852	-0.425205	0.802392	-0.219319	-0.105986	-1.159059	0.521645	1.750624	2.294789	-2.214786	-0.597297	-0.154763	0.662798	-0.684193	0.504767	-2.526215	0.434358	-0.319225	-1.599384	-1.747749	-1.570410	-0.526266	0.211128	-0.828272	0.202921	-0.877686	-2.128679	-0.699950	-0.212962	-1.614773	-0.319434	-0.856923	-1.293322	0.629350	1.079415	0.762627	-0.780695	0.575959	2.108380	-1.570704	-0.592376	0.714087	-0.312231	0.954607	-1.697930	1.645226	0.665402	-0.071770	-1.008026	-1.328403	-0.390687	-1.129081	-1.121965	-0.118291	1.351202	1.131143	1.520090	0.559933	0.650532	-1.789557	-0.887913	-0.348305	-0.668499	0.276851	1.032072	-0.561961	0.201050	-1.744096	1.913341	-0.668543	0.257924	-1.107923	-0.817889	-0.666658	0.657793	-0.766582	0.486004	0.521820	0.414994	0.800659	0.327056	0.497630	2.659145	-0.275417	0.171268	0.271388	2.166622	2.554834	
1.652981	1.131252	0.650492	0.978304	0.381335	0.228287	-0.420708	-0.196350	1.511076	0.359577	0.031201	1.483136	-2.062707	0.712859	-0.338376	1.280540	1.746871	1.228441	-0.861293	-0.655600	-0.637607	0.292037	-0.483671	0.977841	0.013684	1.236364	-0.151313	-0.673376	-2.769187	-0.330488	0.390847	-1.785545	-0.162814	-0.636655	-1.601220	0.073642	-1.391959	-2.296465	-0.428466	0.899696	1.053671	0.772634	-0.968479	-0.702077	0.300887	-1.914699	-1.502153	-0.010297	-1.968381	1.387223	0.343274	0.440171	0.151752	0.019404	0.824846	0.489223	0.138816	0.527060	0.443588	-1.642010	-1.246611	-1.234061	0.612605	0.365597	-0.326487	-0.925420	0.611509	0.689952	-1.215282	0.944863	0.462870	-0.066733	0.722570	0.236618	1.002021	-1.475770	-1.719681	-1.381685	-1.943362	2.843574	-1.601736	0.606757	-0.415114	1.742589	-1.712731	-0.124817	0.028186	1.380479	0.159779	0.324703	0.500484	-0.166297	-0.236922	1.206864	-2.207614	1.053096	0.599610	2.507414	1.132952	0.606580	1.003248	
0.029714	0.778252	-0.903335	0.902575	2.451328	0.487182	-1.043158	0.891982	-0.295003	1.289308	0.451934	0.294676	-2.346218	0.052598	0.538602	0.776827	0.103924	-0.177356	-0.491161	1.348062	2.500457	0.017247	-0.126303	-0.778338	1.360921	-0.335505	-0.414094	0.761946	-1.159043	-1.812425	1.090488	-1.721285	-0.472203	0.801517	-0.549739	-0.045481	1.316094	-0.468895	-0.616590	-0.641572	0.369413	-0.719947	-1.029908	-1.029236	0.254093	-1.528690	-0.307449	1.216988	-0.784002	0.187171	-0.576680	-0.300656	-0.643896	-0.557752	1.133320	0.784118	-0.515468	1.041464	0.750840	0.768992	1.125093	-1.701255	0.064136	-0.158455	-0.807490	-1.495278	-1.004135	0.462730	0.815022	0.615221	-0.477848	-1.789928	0.769713	-1.528586	-0.718433	0.610429	0.061676	0.761386	-1.569600	0.202929	-2.019795	0.569984	-0.297891	2.148897	0.552956	0.960510	1.936622	0.752506	-0.021786	1.839813	-1.363431	-1.065148	-0.196716	-0.106609	-2.407541	-0.278951	-0.091769	-1.288781	0.184474	0.815418	0.768060	
-1.753565	0.056058	-0.339969	0.036729	0.825457	0.021901	-0.316684	-0.192605	-0.072951	0.755440	0.203443	-0.651849	-0.419387	0.016746	-0.675057	-0.983857	0.667914	0.745423	0.358551	-1.671460	1.239437	0.273240	0.129435	-0.593657	2.411862	-0.212968	0.631235	0.329204	0.423749	-0.273121	1.440560	-0.367087	-0.967267	0.488582	0.806669	-0.548599	-0.276644	-1.016602	0.221891	0.619454	1.375905	-0.141942	0.409764	-1.336957	-0.150535	-0.935574	-1.478949	-0.910359	-0.016752	-0.205137	1.142461	1.290160	-0.351344	-0.785369	-0.102362	0.866372	0.712668	1.496999	0.344200	1.187397	-0.286195	-0.784727	-0.459015	-0.661054	0.101094	-0.612873	-0.353767	0.168956	0.126691	-1.727934	0.432691	-0.388994	-0.996961	-0.784299	0.040350	-0.607829	-2.577879	0.900498	1.882267	-0.003941	1.117668	1.196242	1.116872	-0.595388	0.574749	-1.791146	0.790555	0.002573	-0.462138	1.189302	-0.834422	0.567389	1.102184	-2.387269	-0.545573	-1.816371	-1.058504	-1.154167	-0.602636	-0.652711	-0.532291	
0.212388	-0.167707	-0.871191	-0.534342	-0.578708	-0.507607	-1.673864	-0.945536	0.098581	0.056450	1.167265	0.794127	-0.348139	-1.044768	-0.009380	-0.626502	-0.327590	-0.992102	-0.813404	-0.489559	0.070195	-0.267358	0.236840	-0.434930	1.511246	0.503880	1.807531	-0.176881	-0.682741	0.204990	-0.528047	-0.534614	0.982836	-0.754618	0.690654	-0.012156	1.466603	0.430849	0.081570	0.930485	1.330452	-0.455196	0.845443	-0.086965	0.917622	-0.941462	-0.374830	-0.339588	0.249291	-0.592234	0.687166	-0.700051	0.687556	0.699517	0.298606	2.046689	-0.887783	0.609452	0.884331	-0.046711	-1.121389	0.862355	0.239449	0.377397	-0.201217	-1.275644	-0.528839	0.357782	0.629616	-0.454843	0.090566	-0.943967	-0.532858	1.331586	-1.117210	0.773710	0.401328	-0.883998	0.485645	-0.639225	-1.176293	-2.538440	1.982075	-1.054616	1.901225	-1.154151	-0.048677	-0.044673	-0.648220	-0.085542	-1.155785	-1.272826	-0.782731	-0.615639	0.187707	-1.571448	0.598148	-0.070423	-0.110167	-1.269141	-0.140722	
-1.062223	-0.556931	-1.084588	0.006908	1.521668	0.224911	-0.329294	-0.751909	-0.211650	-0.259385	-0.286934	-1.149582	-0.578601	-0.968507	0.476320	-0.776165	-0.404724	0.228481	0.042450	-0.411483	-0.476974	-0.604980	-1.476759	1.386275	-0.425442	-1.441874	-1.201875	-0.124551	-0.738714	-0.717766	-0.317773	-0.408492	-0.265227	0.328821	0.843804	0.958719	0.660957	0.711618	0.034413	2.274990	0.466033	0.796556	0.428454	0.035259	0.728611	0.583200	1.126639	0.585596	-0.146827	1.488737	1.389269	-1.606613	0.051428	-0.495418	-2.165685	1.917794	1.763679	0.051754	1.846653	0.936626	0.552613	0.009590	-1.611815	1.121235	0.298569	-1.668980	-0.187809	-0.468687	0.811783	1.154371	1.447254	0.437665	0.602204	1.181147	-2.490263	-0.473782	-0.120880	-2.534044	-0.111632	-1.853424	-0.464021	-1.829547	1.375275	-2.117745	-0.692888	0.318150	-0.393467	-0.519056	0.419865	-0.635100	-0.522197	-0.309562	-0.589074	-0.487921	-0.871474	-0.642947	-0.087134	-1.002968	0.332526	1.461928	-0.134454	
0.162659	0.955117	1.102117	0.560512	0.198665	-1.330236	1.637607	0.386101	-1.422147	0.610686	-0.808315	-1.472267	0.944642	-1.840229	-0.146895	-0.810036	0.393912	0.867864	-0.997961	-1.568842	-1.378765	0.869643	-2.233729	-0.018761	-1.505546	-0.440301	-1.004842	-0.328312	0.155654	-2.276138	-0.666230	0.431978	-2.747111	0.814275	0.050163	-0.265477	-0.416727	0.090726	-0.026433	2.284474	-0.137339	1.936999	1.419394	1.210778	1.130023	0.174042	-1.583502	0.757890	0.181878	-0.003228	0.563790	1.242944	2.323221	0.381918	1.388531	1.537283	0.828496	-0.208285	0.260944	0.047448	0.200115	-0.300968	0.632205	0.228067	0.403432	0.183722	-0.343896	1.584383	0.563965	0.183274	-1.844682	0.556563	0.440122	-0.393650	0.736750	-0.894661	-2.342470	-1.173471	0.625541	-1.705616	-0.755550	-1.903420	-0.818203	0.581924	-1.304513	0.012828	-1.067458	-1.048351	1.819724	0.318262	0.069563	0.284587	-0.095912	-0.801834	-0.400122	-0.630706	-0.671943	-1.018455	-0.660572	-0.706193	-0.352703	
0.402039	-0.401063	0.938412	0.218334	1.271349	0.946977	-0.293731	-0.887183	-0.294220	0.842375	0.122900	-0.175910	1.030599	-1.332144	-0.203990	-0.581993	-1.925571	-0.830083	-0.267450	0.420265	-2.669871	-0.841599	-0.397814	1.037872	-0.161090	0.732670	-0.329347	-1.911215	0.021560	-1.745249	-3.878589	0.674597	-1.706241	-1.071402	-0.772921	-0.550219	-0.105988	0.681679	-1.400316	1.323004	0.744286	0.792900	-0.853417	0.362018	-0.674926	0.720343	-0.383965	-0.519073	1.140668	1.580175	0.380777	1.830672	0.994638	0.419000	1.513359	0.297042	1.796359	1.840018	1.648096	0.229238	0.275050	-0.570344	0.610127	-0.298212	0.321200	0.650795	-2.133113	0.333053	-0.147248	0.491008	0.123530	-0.318005	0.558099	0.073298	-0.860697	-0.516073	1.023232	-1.084216	-0.524469	-1.710989	-0.498138	-0.251880	-1.172515	0.378474	-1.821491	1.364026	-0.153611	0.833793	1.230102	-0.511328	-0.226398	-0.256621	0.031941	-0.746904	-0.473243	-2.356089	-1.401320	0.842713	-0.207122	-1.486131	0.138720	
-2.443753	-0.525812	0.190472	-0.042997	-1.382563	0.841426	1.045651	0.405891	0.389111	0.213326	-1.258762	-0.543981	0.288149	0.180731	-1.379562	0.529296	1.063604	0.369693	-0.518111	-0.722579	-0.279252	-0.516695	0.504351	0.525560	-1.019636	-2.013739	0.827957	-1.726165	-1.021120	-1.067050	-2.414387	-0.127415	-0.805215	-1.483904	0.501757	-0.547387	-2.382342	-0.471478	-0.511941	-0.568189	-0.311396	-0.670857	0.717608	0.457479	-1.253625	1.313558	0.176322	-1.306339	-0.774635	0.709235	0.387031	0.689907	0.668137	0.219599	-1.049442	1.393884	2.697162	0.199755	0.317623	1.856878	1.666187	1.344642	-0.310373	-0.399612	0.342616	-1.228345	-1.229890	1.072672	-0.291252	0.369592	0.241533	0.760714	1.354640	1.463652	-1.707987	-1.444571	0.859583	-1.330214	0.104472	1.292892	-1.599260	0.733750	0.805407	0.407490	-1.206364	2.088656	-1.996428	-0.206681	-0.654402	0.148921	0.374860	-0.178524	-0.665241	-1.240910	0.216247	-1.444426	-0.580520	-0.736801	-1.028574	0.076329	0.317707	
-1.156427	0.102604	-0.899889	1.080174	-1.057269	-0.592690	-0.814738	-2.296078	-2.277575	0.810998	1.260667	0.470733	0.911144	1.552938	-0.174830	1.205666	-1.068450	0.573792	1.197539	0.058610	-0.489167	-1.144364	0.673809	-2.039619	0.031885	-0.187423	-0.688805	-1.240514	-1.048809	0.362769	-0.756912	-0.774992	-0.706137	-2.378996	-1.046197	0.257740	-0.601985	-1.770419	-0.370264	-1.186767	-0.125648	-0.904670	0.265757	-0.087790	0.617419	-0.209763	-1.171394	-1.503965	0.128950	-1.072736	-0.481671	0.414435	0.136726	0.487389	-0.677710	0.147986	0.071422	-0.046970	1.433262	-0.095607	-0.389638	1.086071	-0.007403	0.495083	1.439874	0.736104	1.102442	-0.433868	1.421996	0.520410	-0.552485	1.066651	-1.273441	0.044926	1.488322	1.501948	0.998758	0.215368	-0.899081	0.360664	-0.567327	0.431029	-0.865543	0.726321	-1.080641	1.038180	-0.835515	1.248342	0.144312	-1.443157	-0.873770	-0.513942	-0.701914	-0.001815	-1.435109	0.002251	-0.099126	0.360054	-0.306893	-1.014915	0.628287	
-1.858771	-0.248077	-0.180967	0.730299	-1.156699	-0.711988	0.787443	-0.761640	0.679257	-0.590598	-1.040588	-0.266288	0.165996	0.855322	-0.507878	1.749514	0.182870	-0.375036	0.437366	-0.972888	-1.424390	-1.909691	1.922843	0.787353	-0.425444	0.174000	-0.417307	0.218539	1.069202	-1.773995	-1.588697	-0.611717	0.831246	-0.765700	-0.767788	-1.658865	-1.766184	-1.671008	1.198732	-1.626480	0.786648	-1.345602	-0.665774	-2.225521	-0.777247	-0.895438	0.340588	-1.922019	0.639828	1.252371	0.089346	0.804704	-1.542043	-0.928780	0.337086	0.410328	-0.080720	0.275148	-1.076365	0.142832	0.793500	0.493658	-0.267322	-0.479357	0.311278	0.006654	-0.465810	-0.307801	1.857356	0.133360	-0.147261	2.803023	2.412435	0.087124	1.147369	-0.389596	-0.876005	1.553003	-0.482694	-0.095414	0.535772	0.551085	-1.432218	-0.719897	-0.073114	-0.230401	0.984917	-1.353003	1.075073	0.274092	0.261258	0.225807	-1.716121	-0.045393	-0.556918	-0.029552	-1.648026	0.392523	0.493200	-0.475902	0.033736	
-1.336062	0.438866	1.857199	0.079800	-0.157572	0.640096	0.678194	-0.045535	0.283727	-0.878288	-0.964508	-0.095046	0.512678	-0.632183	-1.250570	-1.399435	-0.196238	0.003178	-0.450976	1.103915	-0.259903	-0.422342	0.947608	-0.074198	-0.783631	1.002487	0.863674	-0.574488	0.187349	0.603412	0.622069	-0.570965	0.217431	-2.284317	-0.361956	-0.399931	-1.230825	-1.874801	-0.464503	-1.749322	-1.164067	-2.639528	0.629029	0.279777	-0.050298	-0.666897	0.570747	-2.433035	-0.838734	0.595306	-2.114355	1.456805	2.767058	1.646751	0.649804	-0.351977	1.046216	1.289295	-1.493669	0.264179	0.675380	-1.883513	-0.672014	-1.195798	0.247792	0.139354	-0.970516	-0.821612	0.518278	-0.049801	0.681841	-0.981796	1.121791	-0.164017	1.610218	1.262478	0.630968	0.341459	-1.040357	0.014840	0.269158	-0.309869	0.165750	-0.120887	1.453949	-1.376265	1.055267	-0.839860	0.618962	-1.011233	0.209494	0.899375	-0.596400	0.783163	-0.294510	0.211550	-1.489819	0.020633	-1.754993	-0.203623	1.270027	
0.291089	-0.088650	1.584225	-0.466719	-0.981826	0.255612	-0.284106	-0.269790	-0.866212	-1.441529	1.181330	-0.768220	0.007429	-0.115419	0.207605	-0.987274	0.567280	0.090489	0.718774	-0.627809	-1.891381	0.194818	1.128872	1.131716	0.703930	0.692491	-0.103699	0.541881	0.101216	-0.188682	-1.132467	-2.202580	2.634923	-0.033567	-1.811723	-0.176794	-2.282902	-0.333295	-0.184405	-0.660955	-0.453713	-0.543551	-1.430985	0.153198	-1.277776	0.679779	-0.092726	-1.001618	0.631975	1.651086	0.800385	-0.135899	-0.838032	0.875529	1.095245	1.371253	0.732395	1.159107	0.645786	0.161067	0.470998	-0.192852	0.200508	-1.208615	-0.840439	0.380110	-0.526484	-0.621451	-1.565749	-2.457537	-0.713169	-0.644489	0.326830	-0.234896	0.399492	-0.026513	0.103583	0.242031	-0.089689	0.282729	0.149774	0.747874	0.781515	-1.779013	2.789421	-1.320253	0.589950	0.157539	0.064364	0.265569	0.319473	-0.044924	-0.262471	-1.235564	-0.832999	-0.669849	0.252912	1.173118	1.322065	-0.418079	-0.411267	
0.224737	-1.510830	0.858296	0.253609	-1.480209	-0.479128	-1.335195	0.788049	0.237283	-2.039822	-1.086395	0.018929	0.897798	0.561084	-0.296955	-0.611337	0.127764	0.724484	2.063658	0.632616	-0.346970	0.357601	-0.836392	0.611632	0.538026	0.890310	-1.151630	1.096026	-0.792601	-0.165556	0.512680	-0.769790	-0.054853	-0.739533	-0.689351	1.477368	-1.606077	0.616792	-0.293092	-0.540195	-2.032242	1.685406	-0.910173	1.255661	0.759593	1.417306	-0.159008	-0.510523	-0.157105	-0.768165	1.319695	0.181998	1.352392	1.264545	-0.859444	-0.176681	0.998818	-0.102360	0.343937	0.655846	1.458707	1.715019	-0.371147	-0.062163	-0.990561	-0.607385	-1.347394	-2.139473	-0.056101	0.594594	-1.138972	0.906337	-1.101639	-0.574519	0.422230	0.259158	-1.072874	0.850992	-1.109799	-1.500192	0.866025	0.128897	0.770485	-1.022840	1.336608	-0.794994	0.021906	0.584512	-1.990000	1.590439	-0.194150	-0.187965	-0.176047	-0.763090	2.477292	-0.783529	-1.017954	-1.816172	0.704464	0.860790	0.730861	
-0.112528	-0.734919	0.911250	-0.447894	-1.663335	0.451895	0.063030	-1.007348	-1.125892	-1.347832	-1.192885	1.052076	-0.636189	0.376959	0.607197	0.485448	1.301681	-0.255584	0.004827	0.128668	-0.696181	0.263133	1.391172	0.687420	-0.393275	0.880876	-0.901140	0.375282	0.516363	0.328254	0.524564	0.353036	-0.289708	2.396429	-0.604328	-0.556320	-1.150585	-0.320470	-0.001787	1.759355	-1.193256	1.757147	-0.523424	1.671991	0.315009	0.322480	-0.033994	0.374689	0.070715	-0.355489	0.238142	-1.304862	1.372348	1.940163	2.176586	0.804617	-0.030039	0.720650	-1.231485	-1.360037	-0.196394	-0.379906	-1.335159	0.647092	-0.739963	0.717061	2.168102	-1.022995	-0.409381	0.314072	-1.307261	1.573624	-0.013221	1.131217	1.023664	1.182130	-0.259995	0.455527	0.209502	-1.658110	1.243745	-2.162574	-1.681876	0.612928	-0.480178	-1.436962	-0.953091	1.222253	-1.715467	0.135664	-0.285361	0.545936	0.019896	-1.119313	-0.614207	-1.427608	1.430006	-0.611690	0.794347	-0.425379	-1.345198	
-1.132440	0.137560	0.641227	0.270853	-0.557307	-1.007306	-0.635255	0.043926	-0.889878	-1.309273	-1.769487	0.467071	0.361196	2.076262	0.517114	-1.817333	-0.447197	0.429820	0.940211	0.862225	-0.770890	-1.228757	-0.499875	0.327652	1.649234	0.123554	0.361964	0.515274	1.410995	0.852729	-0.373980	1.225471	0.127783	1.358617	-0.072347	0.605622	2.343021	0.481769	-0.026606	0.323955	-1.418151	0.508381	-0.383779	-1.000340	0.599036	0.146752	0.753276	-0.450994	-0.370156	0.999366	1.574255	1.244232	2.055216	-0.093455	0.548534	-0.776730	-0.002704	0.226142	-0.871571	0.338175	0.732652	0.042138	0.280637	-0.993608	-1.151882	-1.026691	0.869826	1.068877	-0.626960	0.855486	1.409929	0.700315	1.060398	1.532990	0.168981	1.508574	1.197034	0.532133	0.446728	-0.895023	0.380834	0.847109	-0.784174	-0.266672	-0.980334	-0.466144	-1.670997	0.133919	-2.065883	0.018812	-1.527810	-1.886502	-1.763128	-0.776062	-0.071948	-1.770487	-0.569660	-1.317061	0.274913	0.780708	-1.543524	
-0.171139	0.439125	-1.163404	-1.372895	1.078101	-1.102735	-0.228084	0.560667	-1.506896	-1.216961	-0.283175	0.878090	0.395960	-1.989109	0.128278	-0.040993	0.816896	0.382486	-0.554406	-0.258598	0.583573	1.573643	-0.542548	0.200559	1.328890	-1.611698	0.566282	-0.798649	-0.614705	0.758001	1.302368	1.697081	2.278770	2.748478	1.208192	-1.153550	-0.191234	-0.299598	0.020170	-0.374601	0.450018	-0.244902	0.881152	-1.680589	2.092958	-1.089434	-0.482076	2.607926	0.160839	-0.075359	-0.546291	-0.676697	0.730514	1.617243	1.235798	0.263926	1.200934	0.857227	-0.130561	-0.059428	-0.762919	0.803436	0.786772	-1.447258	1.599381	1.499758	-0.427720	-0.730004	-0.838557	0.476271	1.298752	-0.222494	0.647771	0.895050	0.637433	0.788680	0.704995	0.387420	1.409058	-0.102158	0.679337	1.134417	-0.025457	0.664521	-0.685611	0.785017	-0.996345	-1.101697	-1.944560	-1.683380	0.142307	-1.759920	-1.329683	-2.241172	-2.361127	-0.607707	-1.892576	-0.257032	-1.115400	-1.117143	-0.784147	
-0.095220	-0.152112	-0.309165	-0.135127	-0.314763	-0.055714	-1.202265	-0.230563	-1.325724	-1.567778	-1.365690	-0.473155	1.113909	0.365204	1.191788	-0.942083	-0.899421	0.250057	0.709423	1.016764	-0.959029	0.116622	-0.392255	1.236396	1.170920	-1.046558	0.179968	-0.012479	2.279817	0.088950	0.891977	-0.789527	-0.384616	0.252716	1.761044	-1.035023	1.140619	0.131362	0.670793	-1.719236	0.586607	-1.519279	1.717450	-0.262568	2.498643	0.989258	-0.676002	0.547153	-1.334001	-0.493857	1.638085	0.587718	-0.101397	1.746478	0.401878	1.490544	-0.220946	0.977790	0.218844	0.279694	1.282715	0.845143	0.342248	-0.595529	-0.691342	0.657041	1.829658	0.962909	-1.097583	-0.290703	-0.137674	-0.235577	-0.298026	-0.891570	0.795000	0.896297	1.615632	0.446829	-0.893671	-0.142704	-0.010357	0.424758	-0.759918	1.704924	-0.156936	-0.803852	0.114073	0.255739	-0.267101	-1.024309	-0.113575	-1.384985	-0.683741	0.229962	-2.392673	-0.396104	-1.603328	-1.041542	-1.536421	-0.781435	-2.005243	
1.427541	0.881868	-0.104435	0.169495	-0.636033	-0.398264	-0.750594	-1.248862	-1.548650	-1.201595	-0.579402	0.290055	0.728531	-0.509298	-0.235544	-0.807300	0.379368	1.468093	-0.419120	-0.119417	-0.125734	-0.311908	0.187274	0.562903	-0.463104	0.287830	0.027193	0.696315	1.528187	-0.734904	-0.128281	-0.566593	0.773537	1.030532	0.487159	-2.840184	1.588993	0.317769	-0.598374	1.036768	0.238705	-0.774089	0.990885	-0.585204	-0.515484	-0.209651	-0.083137	2.252035	1.237367	0.596613	0.608077	0.118349	-0.016171	2.437623	0.432221	0.832542	-0.052974	0.322164	0.690648	0.034873	1.141391	0.184343	-0.045180	0.959744	0.001463	-0.417058	0.829779	-1.228044	-1.089737	0.173045	0.978285	-0.770749	-0.518237	0.565358	0.786500	0.027390	-0.106090	-0.865057	-0.683969	-0.464283	-0.911117	0.506454	-0.047285	-0.337801	-0.521768	1.895735	0.394771	-2.190698	-0.042494	-0.351811	0.580744	-0.180404	-1.537442	0.554580	-0.869337	0.316914	-0.466921	-0.984672	-0.359027	1.140424	-1.773407	
0.912567	0.561271	-1.539666	-0.088661	1.191630	-1.575824	0.263836	1.437431	-0.852409	-2.599927	-0.788322	0.648707	1.002363	0.470880	0.428780	0.284284	-1.691378	0.403707	0.096449	-0.622772	1.167978	-0.376081	0.048284	0.798759	-0.904910	-1.391993	-2.104047	0.378372	0.246687	0.213883	0.547560	0.052098	0.230755	2.939679	1.390532	-0.611838	0.582355	-0.484194	-0.374767	0.499940	-1.437793	-0.662016	-0.659090	1.898049	1.064153	0.523547	-0.559580	-0.159821	-0.219318	-1.755498	0.650694	0.941145	0.628135	1.397504	1.702819	1.764557	1.515309	0.019118	0.208460	-0.797689	-0.112327	0.629094	0.483571	-1.188642	-0.455527	1.301961	0.622615	-0.238249	-1.329211	-1.798636	0.454240	-0.783539	-0.610826	0.199224	-1.625452	0.247791	1.036738	-0.065770	0.254688	0.704280	-1.324940	-0.668285	1.084828	-0.269042	-1.075533	-0.228314	-0.216186	-0.774597	1.437839	-2.056904	-1.535578	-0.462687	0.617019	0.105117	-0.672455	-0.165729	0.562635	0.037356	0.539426	0.349048	0.325293	
0.299927	-0.298521	-1.468856	-1.122888	0.578003	-0.186590	-0.080639	-0.304330	0.649752	-1.004508	0.248226	0.055013	1.253379	1.497370	-0.865123	1.648030	-1.413350	0.955934	0.670153	-1.714666	0.070588	-0.922531	0.107158	0.684636	-0.223042	-1.111917	-0.999755	1.672763	-0.763683	0.898158	-1.848314	1.161660	0.054976	0.149237	0.739534	0.530337	-0.311747	3.021606	-0.180114	-0.652612	-0.676017	1.526326	-1.932507	0.663961	-0.677108	-0.664924	1.187937	-0.103410	-0.214898	-1.368131	-0.899605	0.638634	-0.252300	0.060480	1.737313	-0.601997	1.308209	0.180196	0.710099	1.143314	0.526152	1.006394	0.297469	-0.189605	-0.061885	-0.878637	-0.686711	0.441677	-1.236965	-2.250281	1.090959	-1.081900	-0.536622	0.816887	-1.105742	0.148874	1.464931	-0.707303	-0.661522	0.167914	0.509988	-0.385674	0.342557	-0.412962	0.881994	-0.531220	-0.323445	-2.709137	-0.392767	-0.668944	0.483593	-1.028902	0.593975	-0.081670	-0.480707	0.750297	-0.374620	-0.369539	0.362246	-1.071104	-0.665888	
0.809323	-0.792983	-1.577073	0.569437	-0.552959	-0.318476	0.750809	-1.401014	-1.145604	-0.460755	-0.487068	0.621261	0.405757	1.454953	-0.019772	0.448030	0.275133	0.009422	0.432382	-0.691444	1.859426	0.848952	0.769794	0.246093	0.031225	-0.009063	-0.294888	-0.551895	-0.379247	0.696361	-1.028056	0.230070	0.507124	0.506503	-0.237279	0.323173	-1.686726	0.911294	-1.912244	-0.206749	-0.025395	-0.621630	-0.015394	1.818299	-0.725649	0.266287	-0.316062	-0.581328	-0.058888	-0.414439	-0.149207	0.249351	-0.933382	-1.155519	0.270658	0.431715	0.671704	0.492098	-0.426211	-0.078481	-0.193584	1.206138	0.109863	0.808221	-0.789743	0.965868	1.616147	-0.566130	-1.336146	-0.623388	0.713022	-0.049944	-0.524212	1.050573	0.341940	-0.397404	-0.318957	0.308910	-0.466909	-0.144546	-0.882722	-0.562948	1.739514	-0.927231	-0.895686	-0.487274	1.036312	-1.034246	0.631028	0.100960	-1.127574	-0.817297	-0.468516	-0.230310	-1.119937	-0.218230	0.335006	-0.777325	0.416071	0.406717	0.480503	
2.225984	0.704819	-0.725599	1.611473	-0.243706	-0.912836	-1.896889	-0.209637	-1.268810	-0.817807	-1.465632	-0.597891	0.012968	1.539507	1.909909	-0.156440	1.832727	-0.236858	0.692861	1.397183	1.066942	0.445229	1.357876	1.176867	-0.221435	-0.351075	-0.467040	0.112439	0.163206	-0.762946	0.571733	-1.275176	-0.493209	0.636164	-0.957939	-0.114302	-0.327138	-0.627348	-1.477375	-1.027228	-1.431366	-1.391737	0.798843	0.147376	-1.720029	0.734937	0.395061	-0.617443	0.182921	-1.544542	-0.567490	1.014624	0.866524	-0.127220	1.024016	0.718468	-0.890898	-0.465772	-0.547216	-0.001618	-0.753890	0.591254	-0.400713	0.603675	0.148449	0.411602	1.898628	0.600778	1.092574	0.746993	-0.423947	1.887861	-0.700853	-0.200234	0.373318	-0.336301	0.739160	0.499749	-1.511594	1.616019	-1.158990	-1.031330	0.282052	-1.036556	1.064248	0.594807	-0.226588	-0.746478	-0.367031	0.255560	-2.750423	0.734422	-1.641883	-0.309580	-0.163888	-0.098295	1.195627	-0.313918	-0.661156	-0.591474	1.152008	
