-0.98013,-0.198358
0.483781,0.875189
-0.941449,-0.337155
0.973819,-0.227326
-0.458339,0.888778
0.20117,-0.979556
-0.864212,0.503128
0.327705,-0.94478
0.20392,0.978988
-0.848383,-0.529384
0.316746,0.948511
0.473342,-0.880879
-0.871349,0.490664
0.980172,0.198151
-0.796166,0.605078
0.238025,0.971259
0.589273,-0.807934
0.09847,0.99514
-0.616752,-0.787158
0.999291,0.03766
-0.563571,-0.826068
-0.21388,0.97686
0.689534,-0.724253
-0.995415,0.095655
0.592746,-0.805389